<?xml version="1.0" encoding="utf-8"?>
<svg version="1.1" xmlns="http://www.w3.org/2000/svg" x="0" y="0" viewBox="0 0 42.8 34.3" enable-background="new 0 0 42.8 34.3" xml:space="preserve">
<g fill="#FF7D8F">
<path d="M3,7.5C2.4,7.6,1.9,7,1.7,6.2s0.2-1.6,0.7-1.7S3.6,5,3.8,5.8S3.6,7.3,3,7.5z M1.9,7.9 c0-0.7-0.4-1.2-0.8-1.2S0.3,7.2,0.3,7.8S0.6,9.1,1,9.1S1.9,8.6,1.9,7.9L1.9,7.9z M6.5,4.6c0-1-0.6-1.9-1.3-1.9S3.9,3.6,3.9,4.6 s0.6,1.9,1.3,1.9S6.5,5.6,6.5,4.6z M0,15.2c-0.2,6.1,3.9,8,3.9,14.2c0,2.3,1.5,4.8,4.2,4.8c3.9,0,4.8-2.1,4.9-4.5 c0.1-4.5-4.1-5-4.1-8.9c0-4.9,5.4-4.9,5.4-9.4c0-3.1-2.7-3.4-4.1-3.4C7.6,8,0.2,9.1,0,15.2z M15.7,3.5C15.9,1.8,15.2,0.2,14,0 s-2.4,1.1-2.6,2.8s0.5,3.4,1.6,3.5S15.4,5.3,15.7,3.5L15.7,3.5z M10.4,3.8C10.5,2.6,9.9,1.5,9,1.4S7.4,2.3,7.2,3.5 s0.5,2.3,1.3,2.4S10.2,5.1,10.4,3.8z"/>
<path d="M39.8,7.5c0.6,0.1,1.1-0.5,1.3-1.3s-0.2-1.6-0.7-1.7S39.2,5,39.1,5.8S39.2,7.3,39.8,7.5z M40.9,7.9 c0-0.7,0.3-1.2,0.8-1.2s0.8,0.5,0.9,1.2s-0.3,1.2-0.8,1.2S40.9,8.6,40.9,7.9L40.9,7.9z M36.4,4.6c0-1,0.6-1.9,1.3-1.9 s1.3,0.8,1.3,1.9s-0.6,1.9-1.3,1.9S36.4,5.6,36.4,4.6z M42.8,15.2c0.2,6.1-3.9,8-3.9,14.2c0,2.3-1.5,4.8-4.2,4.8 c-3.9,0-4.8-2.1-4.9-4.5c-0.2-4.5,4.1-5,4.1-8.9c0-4.9-5.4-4.9-5.4-9.4c0-3.1,2.7-3.4,4.1-3.4C35.2,8,42.6,9.1,42.8,15.2 L42.8,15.2z M27.2,3.5c-0.3-1.8,0.5-3.3,1.6-3.5s2.4,1.1,2.6,2.8S31,6.2,29.8,6.4S27.4,5.3,27.2,3.5z M32.5,3.8 c-0.1-1.2,0.5-2.3,1.3-2.4s1.6,0.9,1.8,2.1s-0.5,2.3-1.3,2.4S32.6,5.1,32.5,3.8L32.5,3.8z"/>
</g>
</svg>