<?xml version="1.0" encoding="utf-8"?>
<svg version="1.1" xmlns="http://www.w3.org/2000/svg" x="0" y="0" viewBox="0 0 22 32" enable-background="new 0 0 22 32" xml:space="preserve">
<g fill="#858585">
<path d="M3.4,0L3.4,0C3.1,0,3,0.1,2.8,0.2C2.7,0.3,2.6,0.5,2.6,0.7V12c0,0.4,0.4,0.7,0.8,0.7c1.8,0,4.9,0.3,7,2.5 V3.4c0-0.1-0.1-0.2-0.1-0.4C8.5,0.4,5.2,0,3.4,0z"/>
<path d="M19.4,12V0.7c0-0.2-0.1-0.4-0.2-0.5C19.1,0.1,18.9,0,18.6,0l0,0c-1.8,0-5.2,0.4-6.9,3 c-0.1,0.1-0.1,0.2-0.1,0.4v11.7c2.1-2.1,5.2-2.4,7-2.5C19.1,12.7,19.4,12.4,19.4,12L19.4,12z"/>
<path d="M21.2,2.6h-0.6V12c0,1-0.9,1.9-2,1.9c-1.6,0-4.1,0.3-5.9,1.9c3.1-0.7,6.4-0.2,8.3,0.1 c0.4,0.1,0.8-0.1,0.9-0.5c0,0,0-0.1,0-0.1V3.3C22,2.9,21.6,2.6,21.2,2.6L21.2,2.6z"/>
<path d="M1.4,12V2.6H0.8C0.4,2.6,0,2.9,0,3.3l0,0v11.9C0,15.6,0.4,16,0.8,16c0.1,0,0.1,0,0.2,0 c1.9-0.4,5.2-0.9,8.3-0.1c-1.8-1.6-4.4-1.9-5.9-1.9C2.3,13.9,1.4,13,1.4,12L1.4,12z"/>
</g>
<g fill="#DF5A6D">
<path d="M3.4,16L3.4,16c-0.2,0-0.4,0.1-0.5,0.2c-0.2,0.1-0.2,0.3-0.2,0.5V28c0,0.4,0.4,0.7,0.8,0.7 c1.8,0,4.9,0.3,7,2.5V19.4c0-0.1-0.1-0.2-0.1-0.4C8.5,16.4,5.2,16,3.4,16z"/>
<path d="M19.4,28V16.7c0-0.2-0.1-0.4-0.2-0.5c-0.2-0.1-0.4-0.2-0.6-0.2l0,0c-1.8,0-5.2,0.4-6.9,3 c-0.1,0.1-0.1,0.2-0.1,0.4v11.7c2.1-2.1,5.2-2.4,7-2.5C19.1,28.7,19.4,28.4,19.4,28L19.4,28z"/>
<path d="M21.2,18.6h-0.6V28c0,1-0.9,1.9-2,1.9c-1.6,0-4.1,0.3-5.9,1.9c3.1-0.7,6.4-0.2,8.3,0.1 c0.4,0.1,0.8-0.1,0.9-0.5c0,0,0-0.1,0-0.1V19.3C22,18.9,21.6,18.6,21.2,18.6L21.2,18.6z"/>
<path d="M1.4,28v-9.4H0.8c-0.4,0-0.8,0.3-0.8,0.7l0,0v11.9C0,31.6,0.4,32,0.8,32c0.1,0,0.1,0,0.2,0 c1.9-0.4,5.2-0.9,8.3-0.1c-1.8-1.6-4.4-1.9-5.9-1.9C2.3,29.9,1.4,29,1.4,28L1.4,28z"/>
</g>
</svg>