<?xml version="1.0" encoding="utf-8"?>
<svg version="1.1" xmlns="http://www.w3.org/2000/svg" x="0" y="0" viewBox="0 0 25 20" enable-background="new 0 0 25 20" xml:space="preserve">
<path fill="#FFFFFF" d="M8.8,8.8c-0.1,0-0.8-0.1-0.8,0c0,0.8,0,1.5,0,2.4c1.5,0,2.7,0,4.1,0c-0.2,1.6-1.3,3.2-3.1,3.5
c-2,0.3-4.1-0.7-5-2.6C3,10.2,3.5,7.9,5,6.5C6.7,5,8.8,4.9,11.3,6.5c0.6-0.7,1.2-1.4,1.9-2.1c-0.1-0.1-0.1-0.1-0.2-0.2
c-1.7-1.4-3.7-1.9-6-1.6c-3.7,0.5-7.2,3.9-6.5,8.5c0.6,4.2,4.3,6.8,8.6,6.4c4.7-0.5,6.1-4.5,6.2-7.8c0-0.1,0-0.3,0-0.8
C13.2,8.8,11,8.8,8.8,8.8z M13.2,4.4C13.2,4.4,13.2,4.4,13.2,4.4C13.2,4.4,13.2,4.4,13.2,4.4C13.2,4.4,13.2,4.5,13.2,4.4z
 M24.5,8.8c-1.5,0-1.7,0-2.5,0c0-0.7,0-1.7,0-2.4c-0.8,0-0.9,0-1.7,0c0,0.7,0,1.6,0,2.4c-0.7,0-1.8,0-2.5,0c0,0.8,0,0.8,0,1.6
c0.7,0,1.7,0,2.5,0c0,0.7,0,1.7,0,2.4c0.8,0,0.9,0,1.7,0c0-0.7,0-1.6,0-2.4c0.8,0,1.8,0,2.5,0C24.5,9.7,24.5,9.7,24.5,8.8z"/>
</svg>