<?xml version="1.0" encoding="utf-8"?>
<svg version="1.1" xmlns="http://www.w3.org/2000/svg" x="0" y="0" viewBox="0 0 20 15" enable-background="new 0 0 20 15" xml:space="preserve">
<path fill="#B3A09F" d="M19.8,6.8c-0.2,0.3-0.5,0.5-0.9,0.5c-0.2,0-0.4-0.1-0.5-0.2l-8.4-5l-8.4,5 C1.1,7.4,0.5,7.2,0.2,6.8c-0.3-0.4-0.2-1,0.3-1.3c0,0,0,0,0.1,0l9-5.3c0.3-0.2,0.7-0.2,1.1,0l9,5.3C20,5.7,20.1,6.3,19.8,6.8 C19.9,6.7,19.9,6.7,19.8,6.8z M16.6,7.3l-6-3.6c-0.3-0.2-0.7-0.2-1.1,0l-6,3.6C3.1,7.5,3,7.8,2.9,8.1V14c0,0.5,0.5,1,1,1h3.3 c0.5,0,1-0.4,1-1v-2.7c0.1-0.9,0.8-1.7,1.8-1.6c0.9,0,1.6,0.7,1.6,1.6V14c0,0.5,0.5,1,1,1c0,0,0,0,0,0H16c0.5,0,1-0.4,1-1 c0,0,0,0,0,0V8.1C17.1,7.8,16.9,7.4,16.6,7.3L16.6,7.3z"/>
</svg>