<?xml version="1.0" encoding="utf-8"?>
<svg version="1.1" xmlns="http://www.w3.org/2000/svg" x="0" y="0" viewBox="0 0 27 13" enable-background="new 0 0 27 13" xml:space="preserve">
<path fill="#BA85BA" d="M26.6,8c0.4-1,0.5-2,0.4-3C26.7,3.7,26,2.6,25,1.9c-1.9-1.4-4.2-1.7-6.4-1c-1.3,0.4-2.4,1.1-3.1,2.2 c-0.8,1.1-1.1,2.6-0.7,3.9c0.2,0.8,0.5,1.6,0.8,2.4c0.3,0.7,0.3,1.5,0,2.2c-0.1,0.3-0.3,0.6-0.5,0.8h1c0.7,0,1.3,0,1.9-0.2 c0.3-0.1,0.6-0.2,0.9-0.4c0.1-0.1,0.3-0.2,0.5-0.1c0.4,0.1,0.8,0.2,1.2,0.1c0.5,0,0.9,0,1.4-0.2c0.2,0,0.3,0,0.5,0.1 c0.3,0.2,0.6,0.3,0.9,0.4c1,0.2,2,0.2,3,0.2c-0.8-0.9-1-2.3-0.4-3.3C26.3,8.8,26.4,8.4,26.6,8z M23.8,10.5 c-0.9,0.7-2.1,1.1-3.3,1c-1.9-0.1-3.5-1.3-4.1-3.1C16,7.4,16.7,6.3,17.7,6c0.1,0,0.2,0,0.3-0.1c0.2-0.1,0.5-0.1,0.7-0.1 c0.5,0,0.9,0,1.4,0c0.9,0.1,1.7-0.2,2.4-0.7c-0.4,0.6-1,1-1.7,1.1c1.2,0.4,2.6-0.2,3.2-1.3c0.5,0.5,0.9,1.1,1.1,1.7 C25.6,8.2,25.1,9.7,23.8,10.5L23.8,10.5z M19.5,10c0.7,0.7,1.8,0.8,2.5,0.1c0,0,0.1-0.1,0.1-0.1c-0.4,0-0.9,0.1-1.3,0.1 S19.9,10,19.5,10z M23,7.8c-0.3,0-0.5,0.2-0.6,0.5c0,0.4,0.2,0.5,0.6,0.6c0.3,0,0.5-0.2,0.6-0.5C23.6,8,23.3,7.8,23,7.8 C23,7.8,23,7.8,23,7.8z M18.6,7.8c-0.3,0-0.5,0.2-0.5,0.5c0,0,0,0,0,0c0,0.3,0.2,0.5,0.5,0.5c0.3,0,0.5-0.2,0.6-0.5 C19.2,8,19,7.8,18.6,7.8z"/>
<path fill="#8BA1C7" d="M11.8,4.7C11.6,2,9.3,0,6.6,0C5.4-0.1,4.1,0.3,3,1C1.8,1.8,1,3.2,1,4.7C0.2,4.9,0.1,5.4,0,6 c0,0.4,0.1,0.8,0.3,1.2c0.2,0.4,0.5,0.7,1,0.8l0.1,0.3c0.2,0.6,0.3,1.3,0.6,1.8c0.4,1.1,1.3,2,2.4,2.4c0.9,0.4,1.9,0.5,2.8,0.4 c1.2-0.1,2.2-0.7,3-1.6c0.5-0.7,0.9-1.4,1.1-2.3c0.1-0.4,0.2-0.7,0.3-1.1c0.4,0,0.8-0.3,1-0.7c0.2-0.3,0.3-0.7,0.3-1 C12.9,5.6,12.5,4.9,11.8,4.7z M8.6,10.3c-0.3,0.5-0.9,0.7-1.4,0.4c0,0-0.1,0-0.1-0.1l-0.3-0.2c-0.3-0.2-0.6-0.2-0.9,0l-0.2,0.1 c-0.3,0.2-0.7,0.3-1,0.2c-0.4-0.1-0.6-0.5-0.7-0.9C4,9.5,4.3,9,4.7,8.8c0.5-0.3,1.1-0.5,1.7-0.4c0.6,0,1.2,0.1,1.7,0.4 C8.6,9.1,8.8,9.8,8.6,10.3z M12,7.2c-0.1,0.3-0.5,0.4-0.8,0.3c-0.2,0.3-0.4,0.5-0.6,0.7c-0.4,0.4-1,0.5-1.6,0.2 C8.8,8.4,8.5,8.2,8.2,8.1C7.9,7.9,7.4,7.7,7,7.8c-0.4,0-0.8,0-1.2,0c-0.4,0-0.9,0.1-1.2,0.3L3.9,8.4C3.1,8.9,2.2,8.6,1.7,7.9 L1.5,7.6C1.1,7.7,0.7,7.5,0.6,7.1c0,0,0,0,0-0.1C0.4,6.6,0.3,6.1,0.4,5.6c0-0.1,0.1-0.2,0.1-0.3C0.7,5.1,1,5.1,1.2,5.2 c0,0,0,0,0,0l0.2,0.1c0-0.1,0.1-0.2,0.1-0.2C1.6,4.5,2,4,2.4,3.6C2.9,3.2,3.5,3,4.1,3.2c0.2,0.1,0.5,0.2,0.7,0.3 c0.2,0.1,0.4,0.3,0.7,0.4C6,4.2,6.7,4.3,7.2,4C7.5,3.9,7.7,3.7,8,3.5c0.4-0.3,0.8-0.4,1.3-0.4c0.4,0,0.8,0.1,1,0.4 c0.4,0.4,0.8,0.9,0.9,1.5l0.1,0.2h0.1C12,5,12.2,5.1,12.3,5.6C12.5,6.2,12.4,6.8,12,7.2L12,7.2z M3.9,5.9 c-0.3,0-0.6,0.2-0.7,0.5c0,0,0,0,0,0.1c0,0.4,0.3,0.6,0.6,0.6c0.3,0,0.7-0.3,0.7-0.6C4.6,6.1,4.3,5.9,3.9,5.9 C3.9,5.9,3.9,5.9,3.9,5.9z M8.9,5.9c-0.4,0-0.6,0.3-0.7,0.6c0,0,0,0,0,0c0,0.4,0.4,0.6,0.7,0.6c0.3,0,0.5-0.3,0.6-0.6 C9.5,6.2,9.3,5.9,8.9,5.9C8.9,5.9,8.9,5.9,8.9,5.9z M4.9,9.2c0.8,0.9,2.2,0.9,3,0.1c0,0,0.1-0.1,0.1-0.1c-0.6,0-1.1,0.1-1.6,0.1 S5.4,9.2,4.9,9.2L4.9,9.2z"/>
</svg>