<?xml version="1.0" encoding="utf-8"?>
<svg version="1.1" xmlns="http://www.w3.org/2000/svg" x="0" y="0" viewBox="0 0 21 21" enable-background="new 0 0 21 21" xml:space="preserve">
<path fill="#4D4C4C" d="M3.3,4.1c1.1,0,2.1-0.9,2.1-2.1S4.5,0,3.3,0C2.2,0,1.3,0.9,1.3,2.1C1.3,3.2,2.2,4.1,3.3,4.1 C3.3,4.1,3.3,4.1,3.3,4.1z M5.6,4.9H1c-0.6,0-1,0.4-1,1v4.4c0,0.6,0.4,1,1,1c0,0,0,0,0,0h0.2v4.1c0,0.6,0.4,1,1,1h2.2 c0.6,0,1-0.4,1-1v-0.2c-0.2-0.4-0.3-0.8-0.3-1.2V8.7c0-1,0.6-1.9,1.6-2.3V5.9C6.7,5.4,6.3,4.9,5.6,4.9C5.7,4.9,5.7,4.9,5.6,4.9z M17.6,4.1c1.1,0,2.1-0.9,2.1-2.1S18.8,0,17.6,0c-1.1,0-2.1,0.9-2.1,2.1C15.6,3.2,16.5,4.2,17.6,4.1C17.7,4.2,17.7,4.2,17.6,4.1 L17.6,4.1z M20,4.9h-4.7c-0.6,0-1,0.4-1,1v0.4c0.9,0.4,1.5,1.3,1.5,2.3V14c0,0.4-0.1,0.8-0.3,1.2v0.2c0,0.6,0.4,1,1,1h2.2 c0.6,0,1-0.4,1-1v-4.1H20c0.6,0,1-0.4,1-1V5.9C21,5.4,20.6,4.9,20,4.9C20,4.9,20,4.9,20,4.9z M13.3,7.7H7.7c-0.6,0-1,0.4-1,1 v5.4c0,0.6,0.4,1,1,1c0,0,0,0,0,0h0.4V20c0,0.6,0.4,1,1,1c0,0,0,0,0,0h2.8c0.6,0,1-0.4,1-1v-4.9h0.4c0.6,0,1-0.4,1-1V8.7 C14.3,8.2,13.9,7.7,13.3,7.7C13.3,7.7,13.3,7.7,13.3,7.7z M10.5,6.8c1.3,0,2.4-1.1,2.4-2.4s-1.1-2.4-2.4-2.4 c-1.3,0-2.4,1.1-2.4,2.4S9.2,6.8,10.5,6.8C10.5,6.8,10.5,6.8,10.5,6.8z"/>
</svg>