<?xml version="1.0" encoding="utf-8"?>
<svg version="1.1" xmlns="http://www.w3.org/2000/svg" x="0" y="0" viewBox="0 0 111 33" enable-background="new 0 0 111 33" xml:space="preserve">
<rect fill="#2F0000" opacity="0.3" y="26" width="107.4" height="2"/>
<rect fill="#FF6178" width="111" height="26"/>
<polygon fill="#DB4B60" points="106,33 111,26 106,26"/>
<polygon fill="#B73F51" points="106,29 111,26 106,26"/>
</svg>