<?xml version="1.0" encoding="UTF-8" standalone="no"?>
<!-- Created with Inkscape (http://www.inkscape.org/) -->

<svg
   xmlns:dc="http://purl.org/dc/elements/1.1/"
   xmlns:cc="http://creativecommons.org/ns#"
   xmlns:rdf="http://www.w3.org/1999/02/22-rdf-syntax-ns#"
   xmlns:svg="http://www.w3.org/2000/svg"
   xmlns="http://www.w3.org/2000/svg"
   xmlns:sodipodi="http://sodipodi.sourceforge.net/DTD/sodipodi-0.dtd"
   xmlns:inkscape="http://www.inkscape.org/namespaces/inkscape"
   id="svg2"
   version="1.1"
   inkscape:version="0.91 r13725"
   xml:space="preserve"
   width="1952.5125"
   height="408.47375"
   viewBox="0 0 1952.5125 408.47375"
   sodipodi:docname="logo_mommy_q.ai.svg"><metadata
     id="metadata8"><rdf:RDF><cc:Work
         rdf:about=""><dc:format>image/svg+xml</dc:format><dc:type
           rdf:resource="http://purl.org/dc/dcmitype/StillImage" /><dc:title></dc:title></cc:Work></rdf:RDF></metadata><defs
     id="defs6"><clipPath
       clipPathUnits="userSpaceOnUse"
       id="clipPath16"><path
         d="m 0,326.779 1562.008,0 L 1562.008,0 0,0 0,326.779 Z"
         id="path18"
         inkscape:connector-curvature="0" /></clipPath></defs><sodipodi:namedview
     pagecolor="#ffffff"
     bordercolor="#666666"
     borderopacity="1"
     objecttolerance="10"
     gridtolerance="10"
     guidetolerance="10"
     inkscape:pageopacity="0"
     inkscape:pageshadow="2"
     inkscape:window-width="1855"
     inkscape:window-height="1056"
     id="namedview4"
     showgrid="false"
     inkscape:zoom="0.18386566"
     inkscape:cx="976.25623"
     inkscape:cy="204.23688"
     inkscape:window-x="65"
     inkscape:window-y="24"
     inkscape:window-maximized="1"
     inkscape:current-layer="g14" /><g
     id="g10"
     inkscape:groupmode="layer"
     inkscape:label="logo_mommy_q"
     transform="matrix(1.25,0,0,-1.25,0,408.47375)"><g
       id="g12"><g
         id="g14"
         clip-path="url(#clipPath16)"><g
           id="g20"
           transform="translate(170.4595,230.522)"><path
             d="M 0,0 C -0.171,0.592 -0.33,1.195 -0.653,1.375 0.04,0.988 0.106,0.365 0,0 M 74.828,-13.212 C 73.596,-2.447 71.023,8.06 64.505,16.938 58.251,25.455 49.53,32.227 40.515,37.659 18.674,50.821 -5.242,45.716 -25.851,32.786 -35.607,26.665 -45.755,19.341 -52.277,9.679 c -0.65,-0.962 -1.214,-1.953 -1.739,-2.956 -11.388,-10.086 -20.369,-22.667 -27.983,-35.949 -9.542,-16.645 -18.157,-36.101 -29.946,-49.492 -0.807,-0.917 -1.493,-1.865 -2.075,-2.833 -0.085,-0.136 -0.186,-0.26 -0.267,-0.398 -13.843,-23.395 19.471,-40.468 37.192,-46.238 18.704,-6.09 39.383,-6.031 58.578,-2.625 36.034,6.395 68.828,30.173 83.922,63.808 7.542,16.807 11.534,35.346 9.423,53.792"
             style="fill:#ffeb12;fill-opacity:1;fill-rule:nonzero;stroke:none"
             id="path22"
             inkscape:connector-curvature="0" /></g><g
           id="g24"
           transform="translate(47.6206,163.647)"><path
             d="m 0,0 c -1.839,8.131 -1.614,16.593 -1.769,24.882 -0.073,3.942 0.42,8.82 -1.552,12.409 -1.249,2.273 -3.264,3.876 -5.577,4.653 -1.592,1.765 -3.851,2.993 -6.15,2.727 -17.109,-1.981 -29.679,-17.783 -31.348,-34.448 -1.587,-15.829 8.156,-31.823 23.744,-36.17 7.09,-1.976 16.354,-1.754 22.544,2.651 C 8.597,-17.103 1.759,-7.776 0,0"
             style="fill:#ffeb12;fill-opacity:1;fill-rule:nonzero;stroke:none"
             id="path26"
             inkscape:connector-curvature="0" /></g><g
           id="g28"
           transform="translate(251.8183,230.6055)"><path
             d="M 0,0 C -0.54,4.48 -1.64,8.74 -3.2,12.84 3.06,12.73 9.27,13.28 15.47,14.06 10.69,8.95 5.63,4.21 0,0 m -157.1,-87.41 c 2.52,19.57 10.18,38.3 22.6,53.7 11.51,14.26 30.2,31.48 50.09,25.62 18.07,-5.32 27.88,-25.68 24.62,-43.46 -3.5,-19.11 -18.24,-33.89 -35.45,-41.66 -18.83,-8.51 -42.75,-11.26 -63.06,-6.99 0.25,4.28 0.65,8.54 1.2,12.79 m -48.65,11.83 c -9.7,-3.691 -21.11,-3.64 -29.44,3.19 -7.33,6.02 -11.15,15.86 -10.78,25.23 0.42,10.45 5.81,20.2 13.1,27.46 3.45,3.44 8.02,7.7 13.14,8.07 6.43,0.47 8.25,-8.07 9.58,-12.98 4.32,-15.91 2.91,-33.56 8.83,-48.99 -1.42,-0.73 -2.9,-1.4 -4.43,-1.98 M 22.27,20.99 C 13.08,19.67 3.9,18.51 -5.41,18.9 c -0.16,0.01 -0.31,0 -0.45,-0.02 -1.34,2.69 -2.86,5.31 -4.54,7.9 -5.33,8.24 -11.29,16.23 -19.33,22.02 -14.78,10.65 -34.58,12.8 -52,8.63 -41.31,-9.9 -64.41,-50.16 -83.24,-84.58 -8.19,-14.96 -16.67,-33.01 -31.05,-43.21 -1.09,2.96 -1.93,6.05 -2.57,9.22 -1.92,9.48 -2.31,19.19 -3.82,28.74 -1.21,7.62 -2.94,18.74 -9.03,24.19 -5.95,5.34 -14.56,1.76 -20.05,-2.35 -6.96,-5.2 -12.81,-12.29 -16.43,-20.2 -6.8,-14.88 -4.94,-33.48 7.45,-44.96 11.53,-10.67 28.32,-10.1 41.62,-3.31 0.61,-1.16 1.29,-2.31 2.02,-3.44 7.52,-11.56 19.35,-18.63 32.27,-22.28 -0.15,-4.98 -0.11,-9.96 0.07,-14.9 0.83,-22.33 5.07,-44.5 12.2,-65.661 3.37,-10.009 7.27,-19.819 10.69,-29.809 1.24,-3.63 7.04,-2.07 5.78,1.59 -6.83,19.94 -14.68,39.28 -18.74,60.05 -3.03,15.52 -4.47,31.44 -4.01,47.28 3.53,-0.7 7.11,-1.17 10.66,-1.43 20.76,-1.51 43.45,2.02 61.74,12.29 15.78,8.85 28.78,24.09 32.17,42.19 3.16,16.92 -3.15,34.65 -17.15,44.99 -34.39,25.39 -72.06,-20.14 -84.08,-48.93 -5.5,-13.19 -8.13,-27.34 -9.04,-41.6 -7.93,2.41 -15.41,6.36 -21.42,12.129 -3.3,3.171 -5.88,6.771 -7.89,10.661 15.9,10.96 24.78,29.26 33.79,45.73 10.11,18.48 20.31,37.28 34.59,52.94 12.82,14.06 29.05,25.83 48.03,29.51 18.86,3.67 39.15,-1.23 52.18,-15.82 6.95,-7.77 13.74,-17.64 17.03,-27.61 3.39,-10.29 2.76,-21.66 1.16,-32.24 -2.86,-18.95 -10.19,-37.13 -21.31,-52.72 -10.6,-14.86 -24.27,-26.53 -41.18,-33.52 -16.28,-6.73 -34.06,-10.181 -51.63,-10.931 -8.1,-0.349 -16.26,-0.129 -24.3,0.991 -3.77,0.53 -5.41,-5.25 -1.59,-5.78 5.53,-0.77 11.09,-1.2 16.66,-1.31 -0.01,-0.09 -0.02,-0.18 -0.03,-0.28 -2.06,-29.5 -0.1,-58.78 4.89,-87.9 0.65,-3.8 6.43,-2.19 5.78,1.6 -4.89,28.59 -6.69,57.34 -4.67,86.3 0.01,0.1 0.01,0.19 0.01,0.28 9.98,0.19 19.92,1.349 29.7,3.3 16.76,3.35 33.91,9.16 47.78,19.4 28.88,21.33 48.15,60.7 47.17,96.94 0.04,0.02 0.08,0.05 0.12,0.08 9.31,6.52 17.22,14.29 24.59,22.91 2.05,2.41 0.03,5.44 -2.92,5.02"
             style="fill:#1b1b1b;fill-opacity:1;fill-rule:nonzero;stroke:none"
             id="path30"
             inkscape:connector-curvature="0" /></g><g
           id="g32"
           transform="translate(375.228,291.2085)"><path
             d="m 0,0 c 0.18,0.976 0.322,1.972 0.392,3.006 0.387,5.823 -6.617,9.152 -11.287,6.476 -6.241,-3.577 -12.135,-7.704 -17.638,-12.303 -0.374,5.902 -0.946,11.791 -1.721,17.668 -0.53,4.015 -3.068,7.5 -7.5,7.5 -0.052,0 -0.1,-0.007 -0.151,-0.008 -2.58,1.393 -5.875,1.457 -8.648,-1.059 -2.355,-2.137 -4.176,-4.534 -5.569,-7.113 -5.396,-7.737 -6.847,-18.114 -6.206,-27.36 0.91,-13.129 5.438,-25.431 14.054,-35.399 0.921,-1.796 2.65,-2.931 4.589,-3.402 3.963,-3.549 10.311,-1.792 12.242,3.526 3.176,8.748 11.564,14.44 17.458,21.26 6.335,7.329 11.27,16.365 10.135,26.354 C 0.117,-0.563 0.063,-0.28 0,0"
             style="fill:#f2498a;fill-opacity:1;fill-rule:nonzero;stroke:none"
             id="path34"
             inkscape:connector-curvature="0" /></g><g
           id="g36"
           transform="translate(368.0385,299.1655)"><path
             d="m 0,0 c -0.09,-4.88 -2.2,-9.52 -4.78,-13.56 -4.7,-7.36 -11.26,-13.39 -16.38,-20.46 -4.28,-5.9 -7.861,-12.2 -10.901,-18.79 -12.089,12.57 -19.399,29.4 -19.609,46.98 -0.12,9.58 2.34,23.02 12.949,26.47 12.651,4.11 11.441,-20.12 10.45,-27.85 -0.719,-1.26 -1.41,-2.52 -2.08,-3.77 -1.83,-3.4 3.351,-6.43 5.191,-3.03 0.53,0.98 1.059,1.97 1.599,2.97 l 0.011,0 c 0.329,0.62 0.67,1.24 1.02,1.85 3.19,5.67 6.98,11.26 12.65,14.45 1.779,1 4.909,2.66 7.029,1.75 C -0.4,5.96 0.04,2.19 0,0 M 5.979,1.6 C 5.5,11.39 -2.29,15.41 -10.971,11.42 -15.33,9.41 -18.84,6.27 -21.82,2.6 c -0.071,3.4 -0.401,6.8 -1.04,10.2 -0.89,4.68 -2.51,10.09 -6.741,12.87 -10.489,6.9 -22.389,-6.1 -25.66,-15.02 -4.449,-12.13 -2.63,-26.83 1.391,-38.84 4.09,-12.22 11.189,-23.17 20.66,-31.89 1.81,-1.67 4.14,-0.75 5.01,1.32 5.01,11.89 12.139,22.16 20.54,31.88 6.93,8.01 14.18,17.26 13.639,28.48"
             style="fill:#1b1b1b;fill-opacity:1;fill-rule:nonzero;stroke:none"
             id="path38"
             inkscape:connector-curvature="0" /></g><g
           id="g40"
           transform="translate(345.5083,289.9756)"><path
             d="M 0,0 C 0,-0.02 -0.01,-0.05 -0.01,-0.07 -0.13,-0.92 -0.51,-1.5 -1.02,-1.85 -0.69,-1.23 -0.35,-0.61 0,0"
             style="fill:#1b1b1b;fill-opacity:1;fill-rule:nonzero;stroke:none"
             id="path42"
             inkscape:connector-curvature="0" /></g><g
           id="g44"
           transform="translate(346.6001,144.3691)"><path
             d="m 0,0 c 3.205,17.284 17.727,29.321 33.511,31.412 16.674,2.207 32.476,-6.901 42.69,-20.66 9.419,-12.689 15.868,-30.016 30.02,-37.542 6.147,-3.269 1.789,-6.488 -2.081,-7.65 -1.952,-0.587 -4.755,-1.057 -7.505,-1.729 -1.656,-0.404 -4.003,-1.047 -6.5,-1.412 -3.294,-0.481 -6.618,-0.725 -10.328,-0.893 C 61.01,-39.328 53.916,-38.656 31.26,-39.328 22.793,-39.579 8.45,-34.439 3.598,-26.051 -0.823,-18.41 -1.605,-8.658 0,0"
             style="fill:#9ccc65;fill-opacity:1;fill-rule:nonzero;stroke:none"
             id="path46"
             inkscape:connector-curvature="0" /></g><g
           id="g48"
           transform="translate(392.5678,182.8154)"><path
             d="m 0,0 0,-0.03 c -0.079,-0.64 -0.279,-1.24 -0.63,-1.74 0.011,0.44 0.151,0.9 0.41,1.36 0.08,0.14 0.151,0.27 0.22,0.41"
             style="fill:#1b1b1b;fill-opacity:1;fill-rule:nonzero;stroke:none"
             id="path50"
             inkscape:connector-curvature="0" /></g><g
           id="g52"
           transform="translate(392.8579,183.3555)"><path
             d="m 0,0 c -0.09,-0.18 -0.189,-0.36 -0.29,-0.54 0.03,0.21 0.051,0.42 0.07,0.63 C -0.149,0.07 -0.069,0.03 0,0"
             style="fill:#1b1b1b;fill-opacity:1;fill-rule:nonzero;stroke:none"
             id="path54"
             inkscape:connector-curvature="0" /></g><g
           id="g56"
           transform="translate(392.5678,182.8154)"><path
             d="m 0,0 0,-0.03 c -0.079,-0.64 -0.279,-1.24 -0.63,-1.74 0.011,0.44 0.151,0.9 0.41,1.36 0.08,0.14 0.151,0.27 0.22,0.41"
             style="fill:#1b1b1b;fill-opacity:1;fill-rule:nonzero;stroke:none"
             id="path58"
             inkscape:connector-curvature="0" /></g><g
           id="g60"
           transform="translate(392.5678,182.8154)"><path
             d="m 0,0 0,-0.03 c -0.079,-0.64 -0.279,-1.24 -0.63,-1.74 0.011,0.44 0.151,0.9 0.41,1.36 0.08,0.14 0.151,0.27 0.22,0.41"
             style="fill:#1b1b1b;fill-opacity:1;fill-rule:nonzero;stroke:none"
             id="path62"
             inkscape:connector-curvature="0" /></g><g
           id="g64"
           transform="translate(371.2505,172.2686)"><path
             d="m 0,0 c -1.829,-2.633 -3.666,-6.567 -1.023,-9.325 2.74,-2.859 6.835,-1.224 9.509,0.749 1.537,1.134 0.043,3.739 -1.513,2.591 -1.442,-1.063 -4.234,-3.021 -5.86,-1.198 -1.426,1.599 0.535,4.312 1.478,5.669 C 3.694,0.075 1.096,1.576 0,0"
             style="fill:#1b1b1b;fill-opacity:1;fill-rule:nonzero;stroke:none"
             id="path66"
             inkscape:connector-curvature="0" /></g><g
           id="g68"
           transform="translate(525.1421,104.0205)"><path
             d="m 0,0 c -9.974,-0.333 -19.973,-1.464 -29.939,-2.089 -0.631,-0.04 -1.263,-0.073 -1.894,-0.112 -26.378,0.983 -52.772,1.372 -79.164,1.12 -16.491,-0.157 -32.98,-0.557 -49.46,-1.197 -6.085,-0.238 -12.264,-0.256 -18.374,-0.68 -5.546,0.318 -11.094,0.578 -16.645,0.755 -14.47,0.459 -29.019,-0.52 -43.421,1.511 -2.915,0.41 -5.771,1.218 -8.61,1.624 -2.713,0.385 -6.168,0.837 -8.967,0.937 -4.813,0.174 -8.26,-1.181 -9.727,-6.124 -0.949,-3.198 0.713,-6.478 1.823,-9.581 1.372,-3.836 1.88,-5.074 3.21,-8.447 1.156,-2.932 2.777,-5.59 4.414,-8.051 5.044,-7.582 7.426,-12.037 12.504,-19.229 3.047,-4.313 7.578,-7.284 11.316,-10.866 1.91,-1.83 3.455,-3.998 5.269,-5.907 1.586,-1.67 3.494,-3.159 5.208,-4.704 7.672,-6.916 15.883,-13.146 24.756,-17.986 5.005,-2.731 10.209,-5.011 15.561,-6.74 34.702,-11.209 74.257,-11.636 108.212,2.94 18.025,7.737 33.943,19.63 49.786,31.749 13.722,10.495 28.725,22.3 36.877,39.009 C 18.45,-10.354 11.543,0.385 0,0"
             style="fill:#f1e0cb;fill-opacity:1;fill-rule:nonzero;stroke:none"
             id="path70"
             inkscape:connector-curvature="0" /></g><g
           id="g72"
           transform="translate(531.4185,100.2451)"><path
             d="m 0,0 c -4.62,-7.39 -9.561,-14.359 -14.8,-20.87 l 0,-0.01 c -15.36,-2.5 -30.77,-4.67 -46.221,-6.479 6.401,5.13 12.591,10.529 18.571,16.17 1.41,1.33 -0.71,3.45 -2.12,2.129 -7.071,-6.679 -14.44,-13 -22.09,-18.95 l -0.01,0 c -11.78,-1.33 -23.58,-2.45 -35.391,-3.38 -1.909,-0.15 -1.929,-3.16 0,-3 10.281,0.8 20.54,1.76 30.781,2.861 -21.95,-16.421 -46.08,-29.83 -71.71,-39.801 -1.781,-0.69 -1.01,-3.59 0.8,-2.89 27.56,10.72 53.379,25.321 76.69,43.34 l 0.01,0 c 16,1.8 31.929,3.981 47.83,6.521 -33.22,-39.54 -77.55,-61.691 -125.08,-61.691 -20.1,0 -39.64,3.97 -58.01,11.54 13.91,4.821 27.439,10.691 40.5,17.58 1.71,0.901 0.189,3.491 -1.51,2.59 -13.87,-7.309 -28.27,-13.46 -43.1,-18.41 l -0.01,0 c -21.8,9.71 -41.83,24.57 -59.1,43.94 11.35,1.59 22.65,3.47 33.909,5.65 l 0.011,0 c 10.09,-11.119 21.43,-21.04 33.85,-29.64 1.599,-1.099 3.099,1.5 1.52,2.59 -11.671,8.07 -22.381,17.37 -31.97,27.731 5.19,1.029 10.37,2.129 15.53,3.299 1.88,0.43 1.08,3.321 -0.8,2.901 -5.681,-1.29 -11.37,-2.491 -17.08,-3.611 -3.811,4.25 -7.41,8.67 -10.83,13.25 -1.14,1.531 -3.75,0.04 -2.59,-1.509 3.18,-4.281 6.529,-8.42 10.029,-12.401 -11.269,-2.17 -22.579,-4.019 -33.939,-5.57 -6.86,7.98 -13.27,16.71 -19.15,26.12 -1.17,1.86 -1.23,4.12 -0.16,6.04 1.05,1.91 2.99,3.05 5.17,3.05 l 275.449,0 C -2.83,9.09 -0.9,7.95 0.16,6.04 1.229,4.12 1.17,1.86 0,0 m -168.82,77.42 c 13.06,4.4 27.94,3.55 37.52,-7.1 7.699,-8.56 13.13,-19.11 19.32,-28.75 6.18,-9.61 12.93,-18.9 21.43,-26.48 l -90.9,0 c -18.401,17.25 -12.14,53.971 12.63,62.33 m -20.06,1.37 c 1.38,-1.5 2.92,-2.84 4.62,-3.99 -1.37,-1.3 -2.64,-2.68 -3.81,-4.15 -0.91,2.65 -1.1,5.38 -0.81,8.14 M 5.41,8.95 c -2.13,3.85 -6.03,6.14 -10.431,6.14 l -76.129,0 c -0.13,0.15 -0.28,0.28 -0.46,0.41 -12.4,8.98 -20.86,22.08 -28.83,34.88 -6.21,9.96 -12.19,21.51 -21.59,28.9 -0.41,0.33 -0.84,0.64 -1.27,0.94 2.13,4.13 3.11,8.67 2.81,13.33 -0.24,3.83 -6.24,3.86 -6,0 0.25,-3.72 -0.41,-7.17 -2.071,-10.44 -0.089,-0.18 -0.189,-0.36 -0.29,-0.54 l 0,-0.03 c -0.079,-0.64 -0.279,-1.24 -0.629,-1.74 0.01,0.44 0.15,0.9 0.41,1.36 0.08,0.14 0.15,0.27 0.219,0.41 0.031,0.21 0.051,0.42 0.071,0.63 0.29,3.14 -0.111,6.31 -1.15,9.29 -1.26,3.63 -7.06,2.071 -5.79,-1.59 0.68,-1.94 1.01,-3.86 1.02,-5.839 -9.7,2.159 -20.68,0.649 -29.17,-3.231 -1.92,-0.87 -3.731,-1.9 -5.45,-3.059 -3.62,2.109 -6.4,4.969 -8.46,8.739 -1.29,2.34 -4.741,1.66 -5.491,-0.72 -2.309,-7.36 -2.679,-15.15 1.291,-21.95 -2.541,-4.52 -4.291,-9.5 -5.15,-14.65 -2.13,-12.69 -0.32,-25.23 7.51,-35.1 l -90.85,0 c -4.39,0 -8.29,-2.29 -10.42,-6.14 -2.14,-3.849 -2.02,-8.389 0.32,-12.13 5.26,-8.429 11.04,-16.41 17.25,-23.86 -4.79,-0.6 -9.59,-1.14 -14.4,-1.63 -1.9,-0.189 -1.92,-3.189 0,-3 5.58,0.57 11.14,1.21 16.7,1.931 13.11,-15.211 28.08,-28.12 44.24,-38.061 4.49,-2.76 9.04,-5.29 13.65,-7.57 -3.94,-1.19 -7.91,-2.29 -11.91,-3.31 -1.87,-0.48 -1.07,-3.37 0.8,-2.889 5.07,1.29 10.09,2.719 15.06,4.279 l 0.01,0 c 21.09,-9.8 43.359,-14.76 66.43,-14.76 29.599,0 57.87,8.16 84.04,24.25 18.53,11.401 35.49,26.691 49.889,44.89 3.971,0.671 7.941,1.36 11.911,2.07 1.89,0.34 1.089,3.231 -0.8,2.89 -2.8,-0.5 -5.6,-0.989 -8.401,-1.47 3.941,5.2 7.681,10.62 11.191,16.24 2.34,3.741 2.46,8.281 0.32,12.13"
             style="fill:#1b1b1b;fill-opacity:1;fill-rule:nonzero;stroke:none"
             id="path74"
             inkscape:connector-curvature="0" /></g><g
           id="g76"
           transform="translate(357.3911,68.4092)"><path
             d="m 0,0 c 28.682,3.634 56.871,10.113 84.237,19.442 1.818,0.62 1.037,3.518 -0.797,2.893 C 56.341,13.098 28.405,6.599 0,3 -1.889,2.761 -1.913,-0.242 0,0"
             style="fill:#1b1b1b;fill-opacity:1;fill-rule:nonzero;stroke:none"
             id="path78"
             inkscape:connector-curvature="0" /></g><g
           id="g80"
           transform="translate(329.6089,98.4775)"><path
             d="m 0,0 c 14.125,-4.03 28.401,-7.439 42.823,-10.224 1.887,-0.364 2.695,2.527 0.798,2.893 C 29.199,-4.546 14.922,-1.138 0.798,2.893 -1.062,3.424 -1.855,0.53 0,0"
             style="fill:#1b1b1b;fill-opacity:1;fill-rule:nonzero;stroke:none"
             id="path82"
             inkscape:connector-curvature="0" /></g><g
           id="g84"
           transform="translate(818.6157,118.2256)"><path
             d="m 0,0 -28.926,0 -2.41,47.004 -5.544,59.781 -2.41,0 -34.711,-90.393 -25.311,0 -31.577,90.393 -2.17,0 -6.026,-56.647 -3.374,-50.138 -27.479,0 15.667,155.235 37.604,0 6.268,-22.899 24.586,-73.52 2.169,0 25.792,73.52 6.992,22.899 36.88,0 L 0,0 Z"
             style="fill:#212121;fill-opacity:1;fill-rule:nonzero;stroke:none"
             id="path86"
             inkscape:connector-curvature="0" /></g><g
           id="g88"
           transform="translate(891.6538,237.3037)"><path
             d="m 0,0 c -5.785,-8.038 -8.678,-21.133 -8.678,-39.291 0,-20.73 2.851,-35.517 8.558,-44.353 5.702,-8.839 15.144,-13.257 28.322,-13.257 12.856,0 22.177,4.055 27.962,12.172 5.785,8.113 8.678,21.412 8.678,39.894 0,20.406 -2.855,34.99 -8.557,43.75 C 50.579,7.672 41.137,12.052 27.962,12.052 15.104,12.052 5.785,8.034 0,0 m 81.354,18.44 c 11.811,-13.257 17.717,-32.101 17.717,-56.526 0,-26.677 -6.429,-47.245 -19.284,-61.708 -12.858,-14.463 -31.016,-21.694 -54.477,-21.694 -21.695,0 -38.448,6.787 -50.258,20.368 -11.812,13.578 -17.718,32.82 -17.718,57.731 0,26.192 6.388,46.361 19.164,60.503 12.775,14.139 30.892,21.213 54.356,21.213 21.853,0 38.688,-6.629 50.5,-19.887"
             style="fill:#212121;fill-opacity:1;fill-rule:nonzero;stroke:none"
             id="path90"
             inkscape:connector-curvature="0" /></g><g
           id="g92"
           transform="translate(1189.8276,118.2256)"><path
             d="m 0,0 -28.926,0 -2.41,47.004 -5.544,59.781 -2.41,0 -34.711,-90.393 -25.311,0 -31.577,90.393 -2.17,0 -6.026,-56.647 -3.374,-50.138 -27.479,0 15.667,155.235 37.604,0 6.268,-22.899 24.586,-73.52 2.169,0 25.792,73.52 6.992,22.899 36.88,0 L 0,0 Z"
             style="fill:#212121;fill-opacity:1;fill-rule:nonzero;stroke:none"
             id="path94"
             inkscape:connector-curvature="0" /></g><g
           id="g96"
           transform="translate(1393.9956,118.2256)"><path
             d="m 0,0 -28.926,0 -2.41,47.004 -5.544,59.781 -2.41,0 -34.711,-90.393 -25.311,0 -31.577,90.393 -2.17,0 -6.026,-56.647 -3.374,-50.138 -27.479,0 15.667,155.235 37.604,0 6.268,-22.899 24.586,-73.52 2.169,0 25.792,73.52 6.992,22.899 36.88,0 L 0,0 Z"
             style="fill:#212121;fill-opacity:1;fill-rule:nonzero;stroke:none"
             id="path98"
             inkscape:connector-curvature="0" /></g><g
           id="g100"
           transform="translate(1495.7222,161.373)"><path
             d="m 0,0 1.446,-43.147 -32.542,0 1.447,43.147 -0.242,9.16 -49.415,102.928 34.711,0 3.375,-10.847 26.275,-59.057 2.169,0 29.408,58.092 4.58,11.812 33.506,0 L 0.481,10.365 0,0 Z"
             style="fill:#212121;fill-opacity:1;fill-rule:nonzero;stroke:none"
             id="path102"
             inkscape:connector-curvature="0" /></g></g></g></g></svg>