<?xml version="1.0" encoding="UTF-8" standalone="no"?>
<svg width="337px" height="58px" viewBox="0 0 337 58" version="1.1" xmlns="http://www.w3.org/2000/svg">
    <!-- Generator: Sketch 48 (47235) - http://www.bohemiancoding.com/sketch -->
    <title>Group</title>
    <desc>Created with Sketch.</desc>
    <defs></defs>
    <g id="Page-1" stroke="none" stroke-width="1" fill="none" fill-rule="evenodd">
        <g id="Group" transform="translate(0.000000, -1.000000)">
            <path d="M29,59 C34.1725807,59 43.2766591,59 56.3122352,59 C51.7758024,53.3383446 49.5882887,50.4248743 49.7496939,50.2595891 C54.8543253,45.0322497 58,37.8834807 58,30 C58,13.9837423 45.0162577,1 29,1 C12.9837423,1 0,13.9837423 0,30 C0,46.0162577 12.9837423,59 29,59 Z" id="Oval" fill="#2EB2E9"></path>
            <path d="M86.5859375,33.046875 L86.5859375,41.5546875 C86.5859375,42.8984442 86.281253,43.9062466 85.671875,44.578125 C85.062497,45.2500034 84.2578175,45.5859375 83.2578125,45.5859375 C82.2890577,45.5859375 81.5039093,45.2500034 80.9023438,44.578125 C80.3007782,43.9062466 80,42.8984442 80,41.5546875 L80,31.359375 C80,29.749992 79.945313,28.5000045 79.8359375,27.609375 C79.726562,26.7187455 79.4296899,25.9882841 78.9453125,25.4179688 C78.4609351,24.8476534 77.6953177,24.5625 76.6484375,24.5625 C74.554677,24.5625 73.1757846,25.2812428 72.5117188,26.71875 C71.8476529,28.1562572 71.515625,30.2187366 71.515625,32.90625 L71.515625,41.5546875 C71.515625,42.8828191 71.2148468,43.8867154 70.6132812,44.5664062 C70.0117157,45.2460971 69.2187549,45.5859375 68.234375,45.5859375 C67.2656202,45.5859375 66.4726593,45.2460971 65.8554688,44.5664062 C65.2382782,43.8867154 64.9296875,42.8828191 64.9296875,41.5546875 L64.9296875,23.25 C64.9296875,22.046869 65.2070285,21.1328156 65.7617188,20.5078125 C66.316409,19.8828094 67.0468705,19.5703125 67.953125,19.5703125 C68.8281294,19.5703125 69.5585908,19.8632783 70.1445312,20.4492188 C70.7304717,21.0351592 71.0234375,21.8437448 71.0234375,22.875 L71.0234375,23.484375 C72.132818,22.1562434 73.3203062,21.1796906 74.5859375,20.5546875 C75.8515688,19.9296844 77.2578048,19.6171875 78.8046875,19.6171875 C80.4140705,19.6171875 81.7968692,19.9374968 82.953125,20.578125 C84.1093808,21.2187532 85.0624962,22.1874935 85.8125,23.484375 C86.8906304,22.1718684 88.0468688,21.1992219 89.28125,20.5664062 C90.5156312,19.9335906 91.882805,19.6171875 93.3828125,19.6171875 C95.1328213,19.6171875 96.6406187,19.9609341 97.90625,20.6484375 C99.1718813,21.3359409 100.117184,22.3203061 100.742188,23.6015625 C101.289065,24.7578183 101.5625,26.5781126 101.5625,29.0625 L101.5625,41.5546875 C101.5625,42.8984442 101.257816,43.9062466 100.648438,44.578125 C100.039059,45.2500034 99.23438,45.5859375 98.234375,45.5859375 C97.2656202,45.5859375 96.4726593,45.2460971 95.8554688,44.5664062 C95.2382782,43.8867154 94.9296875,42.8828191 94.9296875,41.5546875 L94.9296875,30.796875 C94.9296875,29.4218681 94.8710943,28.3203166 94.7539062,27.4921875 C94.6367182,26.6640584 94.3203151,25.9687528 93.8046875,25.40625 C93.2890599,24.8437472 92.5078177,24.5625 91.4609375,24.5625 C90.6171833,24.5625 89.81641,24.8124975 89.0585938,25.3125 C88.3007775,25.8125025 87.7109396,26.4843708 87.2890625,27.328125 C86.8203102,28.4062554 86.5859375,30.3124863 86.5859375,33.046875 Z M129.726562,32.578125 C129.726562,34.4843845 129.42969,36.2421795 128.835938,37.8515625 C128.242185,39.4609455 127.382818,40.8437442 126.257812,42 C125.132807,43.1562558 123.78907,44.0429657 122.226562,44.6601562 C120.664055,45.2773468 118.90626,45.5859375 116.953125,45.5859375 C115.015615,45.5859375 113.273445,45.2734406 111.726562,44.6484375 C110.17968,44.0234344 108.839849,43.1289121 107.707031,41.9648438 C106.574213,40.8007754 105.714847,39.4257892 105.128906,37.8398438 C104.542966,36.2538983 104.25,34.5000096 104.25,32.578125 C104.25,30.6406153 104.546872,28.8671955 105.140625,27.2578125 C105.734378,25.6484295 106.585932,24.2734432 107.695312,23.1328125 C108.804693,21.9921818 110.14843,21.1132843 111.726562,20.4960938 C113.304695,19.8789032 115.046865,19.5703125 116.953125,19.5703125 C118.890635,19.5703125 120.64843,19.8828094 122.226562,20.5078125 C123.804695,21.1328156 125.156244,22.0234317 126.28125,23.1796875 C127.406256,24.3359433 128.261716,25.7109295 128.847656,27.3046875 C129.433597,28.8984455 129.726562,30.6562404 129.726562,32.578125 Z M123.304688,32.578125 C123.304688,29.968737 122.730474,27.9375073 121.582031,26.484375 C120.433588,25.0312427 118.890635,24.3046875 116.953125,24.3046875 C115.703119,24.3046875 114.601567,24.628903 113.648438,25.2773438 C112.695308,25.9257845 111.96094,26.8828062 111.445312,28.1484375 C110.929685,29.4140688 110.671875,30.8906166 110.671875,32.578125 C110.671875,34.2500084 110.925779,35.7109313 111.433594,36.9609375 C111.941409,38.2109437 112.667964,39.1679654 113.613281,39.8320312 C114.558598,40.4960971 115.671869,40.828125 116.953125,40.828125 C118.890635,40.828125 120.433588,40.0976636 121.582031,38.6367188 C122.730474,37.1757739 123.304688,35.1562629 123.304688,32.578125 Z M154.046875,33.046875 L154.046875,41.5546875 C154.046875,42.8984442 153.742191,43.9062466 153.132812,44.578125 C152.523434,45.2500034 151.718755,45.5859375 150.71875,45.5859375 C149.749995,45.5859375 148.964847,45.2500034 148.363281,44.578125 C147.761716,43.9062466 147.460938,42.8984442 147.460938,41.5546875 L147.460938,31.359375 C147.460938,29.749992 147.406251,28.5000045 147.296875,27.609375 C147.187499,26.7187455 146.890627,25.9882841 146.40625,25.4179688 C145.921873,24.8476534 145.156255,24.5625 144.109375,24.5625 C142.015615,24.5625 140.636722,25.2812428 139.972656,26.71875 C139.30859,28.1562572 138.976562,30.2187366 138.976562,32.90625 L138.976562,41.5546875 C138.976562,42.8828191 138.675784,43.8867154 138.074219,44.5664062 C137.472653,45.2460971 136.679692,45.5859375 135.695312,45.5859375 C134.726558,45.5859375 133.933597,45.2460971 133.316406,44.5664062 C132.699216,43.8867154 132.390625,42.8828191 132.390625,41.5546875 L132.390625,23.25 C132.390625,22.046869 132.667966,21.1328156 133.222656,20.5078125 C133.777347,19.8828094 134.507808,19.5703125 135.414062,19.5703125 C136.289067,19.5703125 137.019528,19.8632783 137.605469,20.4492188 C138.191409,21.0351592 138.484375,21.8437448 138.484375,22.875 L138.484375,23.484375 C139.593756,22.1562434 140.781244,21.1796906 142.046875,20.5546875 C143.312506,19.9296844 144.718742,19.6171875 146.265625,19.6171875 C147.875008,19.6171875 149.257807,19.9374968 150.414062,20.578125 C151.570318,21.2187532 152.523434,22.1874935 153.273438,23.484375 C154.351568,22.1718684 155.507806,21.1992219 156.742188,20.5664062 C157.976569,19.9335906 159.343742,19.6171875 160.84375,19.6171875 C162.593759,19.6171875 164.101556,19.9609341 165.367188,20.6484375 C166.632819,21.3359409 167.578122,22.3203061 168.203125,23.6015625 C168.750003,24.7578183 169.023438,26.5781126 169.023438,29.0625 L169.023438,41.5546875 C169.023438,42.8984442 168.718753,43.9062466 168.109375,44.578125 C167.499997,45.2500034 166.695317,45.5859375 165.695312,45.5859375 C164.726558,45.5859375 163.933597,45.2460971 163.316406,44.5664062 C162.699216,43.8867154 162.390625,42.8828191 162.390625,41.5546875 L162.390625,30.796875 C162.390625,29.4218681 162.332032,28.3203166 162.214844,27.4921875 C162.097656,26.6640584 161.781253,25.9687528 161.265625,25.40625 C160.749997,24.8437472 159.968755,24.5625 158.921875,24.5625 C158.078121,24.5625 157.277348,24.8124975 156.519531,25.3125 C155.761715,25.8125025 155.171877,26.4843708 154.75,27.328125 C154.281248,28.4062554 154.046875,30.3124863 154.046875,33.046875 Z M194.515625,33.046875 L194.515625,41.5546875 C194.515625,42.8984442 194.210941,43.9062466 193.601562,44.578125 C192.992184,45.2500034 192.187505,45.5859375 191.1875,45.5859375 C190.218745,45.5859375 189.433597,45.2500034 188.832031,44.578125 C188.230466,43.9062466 187.929688,42.8984442 187.929688,41.5546875 L187.929688,31.359375 C187.929688,29.749992 187.875001,28.5000045 187.765625,27.609375 C187.656249,26.7187455 187.359377,25.9882841 186.875,25.4179688 C186.390623,24.8476534 185.625005,24.5625 184.578125,24.5625 C182.484365,24.5625 181.105472,25.2812428 180.441406,26.71875 C179.77734,28.1562572 179.445312,30.2187366 179.445312,32.90625 L179.445312,41.5546875 C179.445312,42.8828191 179.144534,43.8867154 178.542969,44.5664062 C177.941403,45.2460971 177.148442,45.5859375 176.164062,45.5859375 C175.195308,45.5859375 174.402347,45.2460971 173.785156,44.5664062 C173.167966,43.8867154 172.859375,42.8828191 172.859375,41.5546875 L172.859375,23.25 C172.859375,22.046869 173.136716,21.1328156 173.691406,20.5078125 C174.246097,19.8828094 174.976558,19.5703125 175.882812,19.5703125 C176.757817,19.5703125 177.488278,19.8632783 178.074219,20.4492188 C178.660159,21.0351592 178.953125,21.8437448 178.953125,22.875 L178.953125,23.484375 C180.062506,22.1562434 181.249994,21.1796906 182.515625,20.5546875 C183.781256,19.9296844 185.187492,19.6171875 186.734375,19.6171875 C188.343758,19.6171875 189.726557,19.9374968 190.882812,20.578125 C192.039068,21.2187532 192.992184,22.1874935 193.742188,23.484375 C194.820318,22.1718684 195.976556,21.1992219 197.210938,20.5664062 C198.445319,19.9335906 199.812493,19.6171875 201.3125,19.6171875 C203.062509,19.6171875 204.570306,19.9609341 205.835938,20.6484375 C207.101569,21.3359409 208.046872,22.3203061 208.671875,23.6015625 C209.218753,24.7578183 209.492188,26.5781126 209.492188,29.0625 L209.492188,41.5546875 C209.492188,42.8984442 209.187503,43.9062466 208.578125,44.578125 C207.968747,45.2500034 207.164067,45.5859375 206.164062,45.5859375 C205.195308,45.5859375 204.402347,45.2460971 203.785156,44.5664062 C203.167966,43.8867154 202.859375,42.8828191 202.859375,41.5546875 L202.859375,30.796875 C202.859375,29.4218681 202.800782,28.3203166 202.683594,27.4921875 C202.566406,26.6640584 202.250003,25.9687528 201.734375,25.40625 C201.218747,24.8437472 200.437505,24.5625 199.390625,24.5625 C198.546871,24.5625 197.746098,24.8124975 196.988281,25.3125 C196.230465,25.8125025 195.640627,26.4843708 195.21875,27.328125 C194.749998,28.4062554 194.515625,30.3124863 194.515625,33.046875 Z M219.609375,46.3828125 L220.195312,44.953125 L212.320312,25.125 C211.835935,23.9843693 211.59375,23.1562526 211.59375,22.640625 C211.59375,22.0937473 211.734374,21.5859398 212.015625,21.1171875 C212.296876,20.6484352 212.683591,20.2734389 213.175781,19.9921875 C213.667971,19.7109361 214.179685,19.5703125 214.710938,19.5703125 C215.632817,19.5703125 216.328123,19.8632783 216.796875,20.4492188 C217.265627,21.0351592 217.679686,21.8749945 218.039062,22.96875 L223.453125,38.71875 L228.585938,24.0703125 C228.99219,22.8828066 229.359373,21.9531284 229.6875,21.28125 C230.015627,20.6093716 230.363279,20.1562512 230.730469,19.921875 C231.097658,19.6874988 231.617184,19.5703125 232.289062,19.5703125 C232.77344,19.5703125 233.238279,19.6992175 233.683594,19.9570312 C234.128908,20.214845 234.472655,20.5624978 234.714844,21 C234.957032,21.4375022 235.078125,21.8984351 235.078125,22.3828125 C235.015625,22.679689 234.914063,23.1015598 234.773438,23.6484375 C234.632812,24.1953152 234.460939,24.7499972 234.257812,25.3125 L225.914062,47.15625 C225.195309,49.0781346 224.492191,50.585932 223.804688,51.6796875 C223.117184,52.773443 222.207037,53.6132783 221.074219,54.1992188 C219.941401,54.7851592 218.414072,55.078125 216.492188,55.078125 C214.617178,55.078125 213.210942,54.875002 212.273438,54.46875 C211.335933,54.062498 210.867188,53.3203179 210.867188,52.2421875 C210.867188,51.5078088 211.089842,50.9414082 211.535156,50.5429688 C211.980471,50.1445293 212.640621,49.9453125 213.515625,49.9453125 C213.859377,49.9453125 214.195311,49.992187 214.523438,50.0859375 C214.92969,50.179688 215.281249,50.2265625 215.578125,50.2265625 C216.312504,50.2265625 216.890623,50.1171886 217.3125,49.8984375 C217.734377,49.6796864 218.11328,49.3007839 218.449219,48.7617188 C218.785158,48.2226536 219.171873,47.4296927 219.609375,46.3828125 Z M237.742188,45.5859375 C236.773433,45.5859375 235.937504,45.2734406 235.234375,44.6484375 C234.531246,44.0234344 234.179688,43.1484431 234.179688,42.0234375 C234.179688,41.0703077 234.515622,40.2500034 235.1875,39.5625 C235.859378,38.8749966 236.687495,38.53125 237.671875,38.53125 C238.656255,38.53125 239.49609,38.8710904 240.191406,39.5507812 C240.886722,40.2304721 241.234375,41.0546827 241.234375,42.0234375 C241.234375,43.132818 240.886722,44.0039031 240.191406,44.6367188 C239.49609,45.2695344 238.679692,45.5859375 237.742188,45.5859375 Z M269.46875,37.6640625 C269.46875,38.4609415 269.230471,39.3124955 268.753906,40.21875 C268.277341,41.1250045 267.550786,41.9882771 266.574219,42.8085938 C265.597651,43.6289104 264.367195,44.28906 262.882812,44.7890625 C261.39843,45.289065 259.726572,45.5390625 257.867188,45.5390625 C253.914043,45.5390625 250.828136,44.3867303 248.609375,42.0820312 C246.390614,39.7773322 245.28125,36.6875194 245.28125,32.8125 C245.28125,30.1874869 245.789057,27.8671976 246.804688,25.8515625 C247.820318,23.8359274 249.289053,22.2773493 251.210938,21.1757812 C253.132822,20.0742132 255.429674,19.5234375 258.101562,19.5234375 C259.757821,19.5234375 261.277337,19.7656226 262.660156,20.25 C264.042976,20.7343774 265.214839,21.3593712 266.175781,22.125 C267.136724,22.8906288 267.871091,23.7070269 268.378906,24.5742188 C268.886721,25.4414106 269.140625,26.2499962 269.140625,27 C269.140625,27.7656288 268.855472,28.4140598 268.285156,28.9453125 C267.714841,29.4765652 267.023442,29.7421875 266.210938,29.7421875 C265.679685,29.7421875 265.238283,29.6054701 264.886719,29.3320312 C264.535154,29.0585924 264.140627,28.6171905 263.703125,28.0078125 C262.921871,26.8203066 262.105473,25.9296905 261.253906,25.3359375 C260.402339,24.7421845 259.320319,24.4453125 258.007812,24.4453125 C256.117178,24.4453125 254.593756,25.1835864 253.4375,26.6601562 C252.281244,28.1367261 251.703125,30.1562372 251.703125,32.71875 C251.703125,33.921881 251.851561,35.0273387 252.148438,36.0351562 C252.445314,37.0429738 252.874997,37.9023402 253.4375,38.6132812 C254.000003,39.3242223 254.679684,39.8632794 255.476563,40.2304688 C256.273441,40.5976581 257.148433,40.78125 258.101562,40.78125 C259.382819,40.78125 260.480464,40.484378 261.394531,39.890625 C262.308598,39.296872 263.117184,38.3906311 263.820312,37.171875 C264.210939,36.4531214 264.63281,35.890627 265.085938,35.484375 C265.539065,35.078123 266.093747,34.875 266.75,34.875 C267.531254,34.875 268.179685,35.171872 268.695312,35.765625 C269.21094,36.359378 269.46875,36.9921841 269.46875,37.6640625 Z M297,32.578125 C297,34.4843845 296.703128,36.2421795 296.109375,37.8515625 C295.515622,39.4609455 294.656256,40.8437442 293.53125,42 C292.406244,43.1562558 291.062508,44.0429657 289.5,44.6601562 C287.937492,45.2773468 286.179697,45.5859375 284.226562,45.5859375 C282.289053,45.5859375 280.546883,45.2734406 279,44.6484375 C277.453117,44.0234344 276.113287,43.1289121 274.980469,41.9648438 C273.847651,40.8007754 272.988284,39.4257892 272.402344,37.8398438 C271.816403,36.2538983 271.523438,34.5000096 271.523438,32.578125 C271.523438,30.6406153 271.82031,28.8671955 272.414062,27.2578125 C273.007815,25.6484295 273.859369,24.2734432 274.96875,23.1328125 C276.078131,21.9921818 277.421867,21.1132843 279,20.4960938 C280.578133,19.8789032 282.320303,19.5703125 284.226562,19.5703125 C286.164072,19.5703125 287.921867,19.8828094 289.5,20.5078125 C291.078133,21.1328156 292.429682,22.0234317 293.554688,23.1796875 C294.679693,24.3359433 295.535153,25.7109295 296.121094,27.3046875 C296.707034,28.8984455 297,30.6562404 297,32.578125 Z M290.578125,32.578125 C290.578125,29.968737 290.003912,27.9375073 288.855469,26.484375 C287.707026,25.0312427 286.164072,24.3046875 284.226562,24.3046875 C282.976556,24.3046875 281.875005,24.628903 280.921875,25.2773438 C279.968745,25.9257845 279.234378,26.8828062 278.71875,28.1484375 C278.203122,29.4140688 277.945312,30.8906166 277.945312,32.578125 C277.945312,34.2500084 278.199216,35.7109313 278.707031,36.9609375 C279.214846,38.2109437 279.941402,39.1679654 280.886719,39.8320312 C281.832036,40.4960971 282.945306,40.828125 284.226562,40.828125 C286.164072,40.828125 287.707026,40.0976636 288.855469,38.6367188 C290.003912,37.1757739 290.578125,35.1562629 290.578125,32.578125 Z M321.320312,33.046875 L321.320312,41.5546875 C321.320312,42.8984442 321.015628,43.9062466 320.40625,44.578125 C319.796872,45.2500034 318.992192,45.5859375 317.992188,45.5859375 C317.023433,45.5859375 316.238284,45.2500034 315.636719,44.578125 C315.035153,43.9062466 314.734375,42.8984442 314.734375,41.5546875 L314.734375,31.359375 C314.734375,29.749992 314.679688,28.5000045 314.570312,27.609375 C314.460937,26.7187455 314.164065,25.9882841 313.679688,25.4179688 C313.19531,24.8476534 312.429693,24.5625 311.382812,24.5625 C309.289052,24.5625 307.91016,25.2812428 307.246094,26.71875 C306.582028,28.1562572 306.25,30.2187366 306.25,32.90625 L306.25,41.5546875 C306.25,42.8828191 305.949222,43.8867154 305.347656,44.5664062 C304.746091,45.2460971 303.95313,45.5859375 302.96875,45.5859375 C301.999995,45.5859375 301.207034,45.2460971 300.589844,44.5664062 C299.972653,43.8867154 299.664062,42.8828191 299.664062,41.5546875 L299.664062,23.25 C299.664062,22.046869 299.941403,21.1328156 300.496094,20.5078125 C301.050784,19.8828094 301.781245,19.5703125 302.6875,19.5703125 C303.562504,19.5703125 304.292966,19.8632783 304.878906,20.4492188 C305.464847,21.0351592 305.757812,21.8437448 305.757812,22.875 L305.757812,23.484375 C306.867193,22.1562434 308.054681,21.1796906 309.320312,20.5546875 C310.585944,19.9296844 311.99218,19.6171875 313.539062,19.6171875 C315.148446,19.6171875 316.531244,19.9374968 317.6875,20.578125 C318.843756,21.2187532 319.796871,22.1874935 320.546875,23.484375 C321.625005,22.1718684 322.781244,21.1992219 324.015625,20.5664062 C325.250006,19.9335906 326.61718,19.6171875 328.117188,19.6171875 C329.867196,19.6171875 331.374994,19.9609341 332.640625,20.6484375 C333.906256,21.3359409 334.851559,22.3203061 335.476562,23.6015625 C336.02344,24.7578183 336.296875,26.5781126 336.296875,29.0625 L336.296875,41.5546875 C336.296875,42.8984442 335.992191,43.9062466 335.382812,44.578125 C334.773434,45.2500034 333.968755,45.5859375 332.96875,45.5859375 C331.999995,45.5859375 331.207034,45.2460971 330.589844,44.5664062 C329.972653,43.8867154 329.664062,42.8828191 329.664062,41.5546875 L329.664062,30.796875 C329.664062,29.4218681 329.605469,28.3203166 329.488281,27.4921875 C329.371093,26.6640584 329.05469,25.9687528 328.539062,25.40625 C328.023435,24.8437472 327.242193,24.5625 326.195312,24.5625 C325.351558,24.5625 324.550785,24.8124975 323.792969,25.3125 C323.035152,25.8125025 322.445315,26.4843708 322.023438,27.328125 C321.554685,28.4062554 321.320312,30.3124863 321.320312,33.046875 Z" id="mommy.com" fill="#2EB2E9"></path>
            <path d="M25.8334961,40.0073242 L21.5878906,23.1333008 L21.5878906,41.4165039 C21.5878906,42.4282277 21.3620628,43.1870092 20.9104004,43.6928711 C20.458738,44.198733 19.8595415,44.4516602 19.112793,44.4516602 C18.3901331,44.4516602 17.7999697,44.201744 17.3422852,43.7019043 C16.8846006,43.2020646 16.6557617,42.440272 16.6557617,41.4165039 L16.6557617,20.4594727 C16.6557617,19.3032169 16.9568655,18.5233581 17.559082,18.119873 C18.1612986,17.716388 18.9742787,17.5146484 19.9980469,17.5146484 L21.6601562,17.5146484 C22.6598357,17.5146484 23.3854958,17.6049796 23.8371582,17.7856445 C24.2888206,17.9663095 24.6230458,18.2915016 24.8398438,18.7612305 C25.0566417,19.2309594 25.3035468,19.9957629 25.5805664,21.0556641 L29.4287109,35.5629883 L33.2768555,21.0556641 C33.5538751,19.9957629 33.8007802,19.2309594 34.0175781,18.7612305 C34.2343761,18.2915016 34.5686013,17.9663095 35.0202637,17.7856445 C35.4719261,17.6049796 36.1975861,17.5146484 37.1972656,17.5146484 L38.859375,17.5146484 C39.8831431,17.5146484 40.6961233,17.716388 41.2983398,18.119873 C41.9005564,18.5233581 42.2016602,19.3032169 42.2016602,20.4594727 L42.2016602,41.4165039 C42.2016602,42.4282277 41.9758323,43.1870092 41.5241699,43.6928711 C41.0725075,44.198733 40.467289,44.4516602 39.7084961,44.4516602 C38.9978806,44.4516602 38.4137393,44.198733 37.9560547,43.6928711 C37.4983701,43.1870092 37.2695312,42.4282277 37.2695312,41.4165039 L37.2695312,23.1333008 L33.0239258,40.0073242 C32.7469062,41.1033583 32.5210783,41.9073054 32.3464355,42.4191895 C32.1717927,42.9310735 31.8496117,43.3977844 31.3798828,43.8193359 C30.9101539,44.2408875 30.2597698,44.4516602 29.4287109,44.4516602 C28.8024057,44.4516602 28.2724631,44.3161635 27.8388672,44.045166 C27.4052713,43.7741686 27.0680351,43.4278992 26.8271484,43.0063477 C26.5862618,42.5847961 26.3965664,42.1180852 26.2580566,41.6062012 C26.1195468,41.0943171 25.9780281,40.5613634 25.8334961,40.0073242 Z" id="M" fill="#FFFFFF"></path>
        </g>
    </g>
</svg>
