<?xml version="1.0" encoding="utf-8"?>
<svg version="1.1" xmlns="http://www.w3.org/2000/svg" x="0" y="0" width="82.9" height="95.9" viewBox="0 0 82.9 95.9" enable-background="new 0 0 82.9 95.9" xml:space="preserve">
<path fill="#FF6D2D" d="M42.7,20.7c-0.6,0-1-0.4-1.1-0.9c0-0.2,0-0.3,0.1-0.5c1.5-3.9,3.8-9.9,16-10.5c3.9-0.2,7.8,0,11.7,0.6 c3.6,0.5,5.9,0.8,8.7-0.6c1.8-0.9,2.8-1.9,2.7-2.6s-1.2-1.9-4.3-2.9c-2.8-0.9-10.3-1.9-19.3-0.6l-1,0.1C51.4,3.4,45.5,4.2,41,8.5 c-5.9,5.6-5,9.9-4.9,10.1c0.1,0.6-0.2,1.1-0.7,1.3c-0.6,0.1-1.1-0.2-1.3-0.7C34,18.9,32.7,13.6,39.5,7c5-4.8,11.3-5.6,16.3-6.3 l1-0.1c8.8-1.2,16.7-0.5,20.3,0.7s5.6,2.8,5.8,4.7c0.1,1.7-1.1,3.2-3.8,4.6c-3.4,1.8-6.1,1.4-9.9,0.9c-3.7-0.6-7.5-0.8-11.3-0.6 c-11,0.6-12.8,5.4-14.2,9.2C43.5,20.5,43.1,20.7,42.7,20.7z"/>
<path fill="#3385D0" d="M39.7,16.4C17.8,16.4,0,34.2,0,56.2s17.8,39.7,39.7,39.7s39.7-17.8,39.7-39.7S61.7,16.4,39.7,16.4 L39.7,16.4z M39.7,30c-2.1,0-3.8-1.7-3.8-3.8s1.7-3.8,3.8-3.8c2.1,0,3.8,1.7,3.8,3.8C43.5,28.3,41.8,30,39.7,30L39.7,30z"/>
<path opacity="0.7" fill="#FFFFFF" d="M39.8,94.8L39.8,94.8c-0.7,0-1.3,0-2,0c-0.3,0-0.5-0.2-0.5-0.5c0-0.3,0.2-0.5,0.5-0.5c0.7,0,1.3,0,1.9,0 c0.3,0,0.5,0.2,0.5,0.5C40.3,94.5,40.1,94.8,39.8,94.8C39.8,94.8,39.8,94.8,39.8,94.8z M43.8,94.6c-0.3,0-0.5-0.2-0.5-0.5 c0-0.3,0.2-0.5,0.5-0.5c0.7-0.1,1.3-0.2,2-0.3c0.3,0,0.5,0.1,0.6,0.4c0,0.3-0.1,0.5-0.4,0.6c-0.7,0.1-1.3,0.2-2,0.3H43.8z M33.8,94.3L33.8,94.3c-0.7-0.1-1.4-0.2-2.1-0.4c-0.3-0.1-0.5-0.3-0.4-0.6c0.1-0.3,0.3-0.5,0.6-0.4c0.7,0.1,1.3,0.2,1.9,0.3 c0.3,0,0.5,0.3,0.5,0.5S34.1,94.3,33.8,94.3L33.8,94.3z M49.6,93.5c-0.3,0-0.5-0.2-0.6-0.4c0-0.3,0.2-0.5,0.4-0.6 c0.7-0.2,1.3-0.4,1.9-0.6c0.3-0.1,0.6,0.1,0.7,0.3c0.1,0.3-0.1,0.6-0.3,0.7l0,0c-0.7,0.2-1.3,0.4-1.9,0.6L49.6,93.5z M28,92.9 h-0.1c-0.7-0.2-1.3-0.4-1.9-0.7c-0.2-0.1-0.4-0.4-0.2-0.7c0.1-0.2,0.4-0.3,0.6-0.3c0.6,0.2,1.2,0.5,1.9,0.7 c0.3,0,0.5,0.3,0.4,0.6C28.5,92.8,28.3,93,28,92.9L28,92.9z M55.3,91.5c-0.3,0.1-0.5-0.1-0.6-0.4c-0.1-0.3,0.1-0.5,0.4-0.6 c0.6-0.3,1.2-0.5,1.8-0.8c0.2-0.1,0.5,0,0.7,0.2c0.1,0.2,0,0.5-0.2,0.7c-0.6,0.3-1.2,0.6-1.8,0.9C55.4,91.4,55.3,91.5,55.3,91.5 L55.3,91.5z M22.5,90.6c-0.1,0-0.2,0-0.2-0.1c-0.6-0.3-1.2-0.6-1.8-1c-0.2-0.1-0.3-0.4-0.2-0.7c0.1-0.2,0.4-0.3,0.7-0.2 c0.6,0.3,1.1,0.6,1.7,0.9c0.2,0.1,0.4,0.4,0.2,0.7C22.8,90.5,22.7,90.6,22.5,90.6L22.5,90.6z M60.5,88.6c-0.3,0-0.5-0.2-0.5-0.5 c0-0.2,0.1-0.3,0.2-0.4c0.5-0.4,1.1-0.7,1.6-1.1c0.2-0.2,0.5-0.1,0.7,0.1c0.2,0.2,0.1,0.5-0.1,0.7c-0.5,0.4-1.1,0.8-1.7,1.2 C60.7,88.6,60.6,88.6,60.5,88.6L60.5,88.6z M17.3,87.5c-0.1,0-0.2,0-0.3-0.1c-0.5-0.4-1.1-0.8-1.6-1.2c-0.2-0.2-0.2-0.5-0.1-0.7 c0.2-0.2,0.5-0.2,0.7-0.1c0.5,0.4,1,0.8,1.6,1.2c0.2,0.2,0.3,0.5,0.1,0.7C17.6,87.5,17.5,87.5,17.3,87.5L17.3,87.5z M65.2,85 c-0.3,0-0.5-0.2-0.5-0.5c0-0.1,0.1-0.3,0.2-0.4c0.5-0.4,1-0.9,1.4-1.4c0.2-0.2,0.5-0.2,0.7,0s0.2,0.5,0,0.7 c-0.5,0.5-1,0.9-1.5,1.4C65.5,85,65.4,85,65.2,85z M12.8,83.6c-0.1,0-0.3-0.1-0.4-0.2c-0.5-0.5-0.9-1-1.4-1.5 c-0.2-0.2-0.1-0.5,0.1-0.7c0.2-0.2,0.5-0.1,0.7,0c0.4,0.5,0.9,1,1.4,1.4c0.2,0.2,0.2,0.5,0,0.7C13.1,83.6,12.9,83.6,12.8,83.6 L12.8,83.6z M69.3,80.6c-0.3,0-0.5-0.2-0.5-0.5c0-0.1,0-0.2,0.1-0.3c0.4-0.5,0.8-1,1.2-1.6c0.2-0.2,0.5-0.3,0.7-0.1 s0.3,0.5,0.1,0.7c-0.4,0.5-0.8,1.1-1.2,1.6C69.6,80.6,69.5,80.6,69.3,80.6L69.3,80.6z M8.9,79.1c-0.2,0-0.3-0.1-0.4-0.2 c-0.4-0.5-0.8-1.1-1.2-1.7c-0.2-0.2-0.1-0.5,0.1-0.7c0.2-0.2,0.5-0.1,0.7,0.1c0.4,0.5,0.7,1.1,1.1,1.6c0.2,0.2,0.1,0.5-0.1,0.7 C9.1,79.1,9,79.1,8.9,79.1L8.9,79.1z M72.7,75.7c-0.3,0-0.5-0.2-0.5-0.5c0-0.1,0-0.2,0.1-0.2c0.3-0.6,0.6-1.1,0.9-1.7 c0.1-0.2,0.4-0.3,0.7-0.2c0.2,0.1,0.3,0.4,0.2,0.6c-0.3,0.6-0.6,1.2-1,1.8C73.1,75.6,72.9,75.7,72.7,75.7z M5.8,74 c-0.2,0-0.4-0.1-0.4-0.3c-0.3-0.6-0.6-1.2-0.9-1.8c-0.1-0.3,0-0.5,0.3-0.6c0.2-0.1,0.5,0,0.6,0.2c0.3,0.6,0.6,1.2,0.8,1.8 c0.2,0.2,0.1,0.5-0.1,0.7c0,0,0,0-0.1,0C5.9,74,5.9,74,5.8,74z M75.3,70.3c-0.3,0-0.5-0.2-0.5-0.5c0-0.1,0-0.1,0-0.2 c0.2-0.6,0.5-1.2,0.7-1.9c0.1-0.3,0.4-0.4,0.7-0.3s0.4,0.4,0.3,0.7l0,0c-0.2,0.7-0.4,1.3-0.7,1.9C75.8,70.2,75.5,70.3,75.3,70.3 L75.3,70.3z M3.5,68.5c-0.2,0-0.4-0.1-0.5-0.3c-0.2-0.7-0.4-1.3-0.6-1.9c-0.1-0.3,0.1-0.6,0.4-0.6c0.3-0.1,0.6,0.1,0.6,0.4 c0.2,0.7,0.4,1.3,0.6,1.9c0.1,0.3-0.1,0.5-0.3,0.6L3.5,68.5z M77,64.6L77,64.6c-0.4-0.1-0.5-0.3-0.5-0.6c0,0,0,0,0,0 c0.1-0.7,0.3-1.3,0.4-1.9c0-0.3,0.3-0.5,0.6-0.4c0.3,0,0.5,0.3,0.4,0.6c-0.1,0.7-0.2,1.3-0.4,2C77.4,64.4,77.2,64.6,77,64.6z M2.1,62.7c-0.2,0-0.5-0.2-0.5-0.4c-0.1-0.7-0.2-1.3-0.3-2c0-0.3,0.2-0.5,0.4-0.6s0.5,0.2,0.6,0.4c0.1,0.7,0.2,1.3,0.3,2 C2.6,62.4,2.4,62.7,2.1,62.7C2.2,62.7,2.2,62.7,2.1,62.7L2.1,62.7z M77.8,58.7L77.8,58.7c-0.3,0-0.5-0.3-0.5-0.5c0,0,0,0,0,0 c0-0.7,0.1-1.3,0.1-2V56c0-0.3,0.2-0.5,0.5-0.5s0.5,0.2,0.5,0.5v0.2c0,0.7,0,1.3-0.1,2C78.3,58.4,78.1,58.6,77.8,58.7 C77.8,58.6,77.8,58.6,77.8,58.7L77.8,58.7z M1.6,56.7c-0.3,0-0.5-0.2-0.5-0.4c0,0,0,0,0,0v-0.1c0-0.7,0-1.3,0-1.9 c0-0.3,0.2-0.5,0.5-0.5c0,0,0,0,0,0c0.3,0,0.5,0.2,0.5,0.5c0,0,0,0,0,0c0,0.6,0,1.3,0,1.9C2.1,56.4,1.9,56.7,1.6,56.7L1.6,56.7z M77.6,52.5c-0.3,0-0.5-0.2-0.5-0.5c-0.1-0.7-0.2-1.3-0.3-2c0-0.3,0.1-0.5,0.4-0.6c0.3,0,0.5,0.1,0.6,0.4c0.1,0.7,0.2,1.3,0.3,2 C78.1,52.2,77.9,52.4,77.6,52.5L77.6,52.5z M2,50.8L2,50.8c-0.3,0-0.5-0.3-0.5-0.6c0,0,0,0,0,0c0.1-0.7,0.2-1.3,0.4-2 c0.1-0.3,0.3-0.5,0.6-0.4s0.5,0.3,0.4,0.6c-0.1,0.7-0.3,1.3-0.3,1.9C2.5,50.6,2.3,50.8,2,50.8z M76.5,46.6 c-0.2,0-0.4-0.2-0.5-0.4c-0.2-0.7-0.4-1.3-0.6-1.9c-0.1-0.3,0.1-0.6,0.3-0.7c0.3-0.1,0.6,0.1,0.7,0.3c0.2,0.6,0.4,1.3,0.5,1.9 c0.1,0.3-0.1,0.5-0.3,0.6L76.5,46.6z M3.4,45H3.3C3,44.9,2.9,44.6,3,44.3c0,0,0,0,0,0c0.2-0.7,0.4-1.3,0.7-1.9 c0.1-0.2,0.4-0.4,0.7-0.2c0.2,0.1,0.3,0.4,0.3,0.6c-0.2,0.6-0.4,1.2-0.7,1.9C3.9,44.8,3.7,45,3.4,45z M74.5,41 c-0.2,0-0.4-0.1-0.5-0.3c-0.3-0.6-0.6-1.2-0.8-1.8c-0.1-0.2,0-0.5,0.2-0.7c0.2-0.1,0.5,0,0.7,0.2l0,0c0.3,0.6,0.6,1.2,0.9,1.8 c0.1,0.3,0,0.5-0.2,0.7C74.6,41,74.6,41,74.5,41L74.5,41z M5.7,39.4c-0.1,0-0.2,0-0.2,0c-0.2-0.1-0.3-0.4-0.2-0.7 c0.3-0.6,0.6-1.2,1-1.8c0.1-0.2,0.4-0.3,0.7-0.2c0.2,0.1,0.3,0.4,0.2,0.7c-0.3,0.6-0.6,1.1-0.9,1.7C6.1,39.3,5.9,39.4,5.7,39.4z M71.6,35.8c-0.2,0-0.3-0.1-0.4-0.2c-0.4-0.5-0.7-1.1-1.1-1.6c-0.2-0.2-0.1-0.5,0.1-0.7c0.2-0.2,0.5-0.1,0.7,0.1 c0.4,0.5,0.8,1.1,1.2,1.7c0.1,0.2,0.1,0.5-0.2,0.7C71.8,35.7,71.7,35.8,71.6,35.8L71.6,35.8z M8.8,34.3c-0.3,0-0.5-0.2-0.5-0.5 c0-0.1,0-0.2,0.1-0.3c0.4-0.5,0.8-1.1,1.2-1.6c0.2-0.2,0.5-0.2,0.7-0.1c0.2,0.2,0.2,0.5,0.1,0.7l0,0c-0.4,0.5-0.8,1-1.2,1.6 C9.1,34.2,9,34.3,8.8,34.3z M68,31c-0.1,0-0.3-0.1-0.4-0.2c-0.4-0.5-0.9-1-1.4-1.4c-0.2-0.2-0.2-0.5,0-0.7s0.5-0.2,0.7,0 c0.5,0.5,0.9,1,1.4,1.5c0.2,0.2,0.2,0.5,0,0.7C68.3,31,68.1,31.1,68,31L68,31z M12.7,29.8c-0.3,0-0.5-0.2-0.5-0.5 c0-0.1,0.1-0.3,0.1-0.3c0.5-0.5,1-0.9,1.5-1.4c0.2-0.2,0.5-0.2,0.7,0s0.2,0.5,0,0.7c0,0,0,0,0,0c-0.5,0.4-1,0.9-1.4,1.4 C13,29.7,12.9,29.8,12.7,29.8L12.7,29.8z M63.6,27c-0.1,0-0.2,0-0.3-0.1c-0.5-0.4-1-0.8-1.6-1.2c-0.2-0.2-0.3-0.5-0.1-0.7 c0.2-0.2,0.5-0.3,0.7-0.1c0.5,0.4,1.1,0.8,1.6,1.2c0.2,0.2,0.2,0.5,0.1,0.7C63.9,26.9,63.8,27,63.6,27L63.6,27z M17.2,25.9 c-0.3,0-0.5-0.2-0.5-0.5c0-0.2,0.1-0.3,0.2-0.4c0.5-0.4,1.1-0.8,1.7-1.1c0.2-0.2,0.5-0.1,0.7,0.1s0.1,0.5-0.1,0.7 c-0.5,0.4-1.1,0.7-1.6,1.1C17.4,25.8,17.3,25.9,17.2,25.9z M58.7,23.6c-0.1,0-0.2,0-0.3-0.1c-0.6-0.3-1.1-0.6-1.7-0.9 c-0.3-0.1-0.4-0.4-0.3-0.7c0.1-0.3,0.4-0.4,0.7-0.3c0,0,0,0,0.1,0c0.6,0.3,1.2,0.6,1.8,1c0.2,0.1,0.3,0.4,0.2,0.7 C59,23.5,58.9,23.6,58.7,23.6L58.7,23.6z M22.3,22.7c-0.3,0-0.5-0.2-0.5-0.5c0-0.2,0.1-0.3,0.3-0.4c0.6-0.3,1.2-0.6,1.8-0.9 c0.2-0.1,0.5,0,0.7,0.2c0.1,0.2,0,0.5-0.2,0.7c0,0,0,0-0.1,0c-0.6,0.3-1.2,0.5-1.8,0.9C22.5,22.7,22.4,22.7,22.3,22.7z M53.3,21 c-0.1,0-0.1,0-0.2,0c-0.6-0.2-1.2-0.4-1.9-0.6c-0.3-0.1-0.4-0.4-0.3-0.7c0.1-0.3,0.4-0.4,0.7-0.3c0.7,0.2,1.3,0.4,1.9,0.7 c0.3,0,0.5,0.3,0.4,0.6S53.6,21.1,53.3,21L53.3,21L53.3,21z M27.8,20.4c-0.3,0-0.5-0.1-0.6-0.4s0.1-0.5,0.4-0.6 c0.7-0.2,1.3-0.4,1.9-0.6c0.3-0.1,0.6,0.1,0.6,0.4c0.1,0.3-0.1,0.6-0.4,0.6l0,0c-0.7,0.2-1.3,0.4-1.9,0.6L27.8,20.4z M47.5,19.3 L47.5,19.3c-0.8-0.1-1.4-0.3-2-0.4c-0.3,0-0.5-0.3-0.4-0.6s0.3-0.5,0.6-0.4c0.7,0.1,1.3,0.2,2,0.4c0.3,0,0.5,0.3,0.5,0.5 S47.8,19.4,47.5,19.3L47.5,19.3z M33.7,19c-0.3,0-0.5-0.2-0.5-0.5s0.2-0.5,0.5-0.5c0.7-0.1,1.3-0.2,2-0.3c0.3,0,0.5,0.2,0.6,0.4 s-0.2,0.5-0.4,0.6C35,18.8,34.3,18.9,33.7,19L33.7,19z M41.7,18.6L41.7,18.6c-0.6,0-1.2,0-1.9,0h-0.1c-0.3,0-0.5-0.2-0.5-0.5 s0.2-0.5,0.5-0.5h0.1c0.7,0,1.3,0,1.9,0c0.3,0,0.5,0.2,0.5,0.5S42,18.6,41.7,18.6L41.7,18.6z"/>
<path opacity="0.6" fill="#64ACFF" d="M39.8,22.5c0.8,0,1.5,0.2,2.2,0.7c-0.4-1.2-1.6-1.9-2.9-1.6 c-0.8,0.2-1.4,0.9-1.6,1.7C38.1,22.8,38.9,22.5,39.8,22.5z"/>
<path opacity="0.6" fill="#64ACFF" d="M72,53.8c-0.8,0-1.6,0.4-2,1.2h-3.3l2.4-2.4 c0.2,0.1,0.4,0.1,0.6,0.1c1.3,0,2.3-1,2.3-2.3c0-1.3-1-2.3-2.3-2.3c-1.3,0-2.3,1-2.3,2.3l0,0c0,0.2,0,0.4,0.1,0.6l-4,4h-3v-0.7 l2-2c0.4-0.4,0.4-1.2,0-1.6s-1.2-0.4-1.6,0l-2.1,2.1c-0.4,0.2-0.6,0.6-0.5,1V55h-5.4l1.2-1.2c0.2,0.1,0.4,0.1,0.6,0.1 c1.3,0,2.3-1,2.3-2.3s-1-2.3-2.3-2.3c-1.3,0-2.3,1-2.3,2.3c0,0.2,0,0.4,0.1,0.6L49.7,55h-3.1c-0.2-1-0.6-2-1.2-2.9l1.8-1.8h4.2 c0.6,0,1.2-0.5,1.2-1.2c0-0.6-0.5-1.2-1.2-1.2h-1.8l3.6-3.6l0.7,0.7c0.2,0.4,0.6,0.6,1,0.5H57c0.6,0,1.2-0.5,1.2-1.2 c0-0.6-0.5-1.2-1.2-1.2h-1.8l-0.6-0.6l1.7-1.7h5.8c0.1,0.2,0.2,0.3,0.4,0.5c0.9,0.9,2.3,0.9,3.2,0c0.9-0.9,0.9-2.3,0-3.2 c-0.9-0.9-2.3-0.9-3.2,0c-0.1,0.1-0.3,0.3-0.4,0.5h-3.4l3.5-3.5c1.2,0.3,2.5-0.4,2.8-1.6c0.3-1.2-0.4-2.5-1.6-2.8 s-2.5,0.4-2.8,1.6c-0.1,0.4-0.1,0.8,0,1.2L57,37.2v-3.4c0.2-0.1,0.4-0.3,0.6-0.4c0.9-0.9,0.9-2.3,0-3.2c-0.9-0.9-2.3-0.9-3.2,0 c-0.9,0.9-0.9,2.3,0,3.2c0.1,0.1,0.2,0.2,0.3,0.3v5.8L53,41.3l-0.6-0.6v-1.8c0-0.6-0.5-1.2-1.2-1.2c-0.6,0-1.2,0.5-1.2,1.2v2.3 c0,0.4,0.2,0.8,0.5,1l0.7,0.7l-3.6,3.6v-1.8c0-0.6-0.5-1.2-1.2-1.2c-0.6,0-1.2,0.5-1.2,1.2l0,0v4.2l-1.8,1.8 c-0.8-0.6-1.8-1-2.9-1.2v-3.1l2.8-2.8c0.2,0.1,0.4,0.1,0.6,0.1c1.3,0,2.3-1.1,2.3-2.3s-1.1-2.3-2.3-2.3c-1.3,0-2.3,1-2.3,2.3 c0,0.2,0,0.4,0.1,0.6L40.9,43v-6.5H42c0.4,0,0.8-0.2,1-0.5l2.1-2.1c0.4-0.4,0.4-1.2,0-1.6s-1.2-0.4-1.6,0l0,0l-2,2h-0.7v-1.9l4-4 c0.2,0.1,0.4,0.1,0.6,0.1c1.3,0,2.3-1,2.3-2.3c0-1.3-1-2.3-2.3-2.3c-0.9,0-1.8,0.5-2.1,1.4c0.1,0.3,0.2,0.7,0.2,1 c0,2.1-1.7,3.8-3.7,3.8c-2.1,0-3.8-1.7-3.8-3.7c0-0.3,0-0.7,0.1-1c-0.5-1.2-1.8-1.8-3-1.3c-1.2,0.5-1.8,1.8-1.3,3 c0.4,0.9,1.3,1.5,2.3,1.5c0.2,0,0.4,0,0.6-0.1l4,4v1.8h-0.7l-2-2c-0.4-0.4-1.2-0.4-1.6,0s-0.4,1.2,0,1.6l2.1,2.2 c0.2,0.4,0.6,0.6,1,0.5h1.2V43l-1.2-1.2c0.1-0.2,0.1-0.4,0.1-0.6c0-1.3-1-2.3-2.3-2.3s-2.3,1-2.3,2.3c0,1.3,1,2.3,2.3,2.3 c0.2,0,0.4,0,0.6-0.1l2.8,2.8v3.1c-1,0.2-2,0.6-2.9,1.2L34,48.8v-4.1c0-0.6-0.5-1.2-1.2-1.2c-0.6,0-1.2,0.5-1.2,1.2v1.8l-3.6-3.6 l0.7-0.7c0.4-0.2,0.6-0.6,0.5-1v-2.3c0-0.6-0.5-1.2-1.2-1.2c-0.6,0-1.2,0.5-1.2,1.2v1.8l-0.6,0.6l-1.7-1.7v-5.6 c1.1-0.6,1.5-2.1,0.8-3.2c-0.6-1.1-2.1-1.5-3.2-0.8S21,32,21.6,33.1c0.2,0.4,0.5,0.6,0.8,0.8v3.3l-3.5-3.5 c0.3-1.2-0.4-2.5-1.6-2.8c-1.2-0.3-2.5,0.4-2.8,1.6s0.4,2.5,1.6,2.8c0.4,0.1,0.8,0.1,1.2,0l3.5,3.5h-3.4c-0.1-0.2-0.2-0.3-0.4-0.5 c-0.9-0.9-2.3-0.9-3.2,0c-0.9,0.9-0.9,2.3,0,3.2c0.9,0.9,2.3,0.9,3.2,0c0.1-0.1,0.3-0.3,0.4-0.5h5.6l1.7,1.7l-0.6,0.6h-1.8 c-0.6,0-1.2,0.5-1.2,1.2c0,0.6,0.5,1.2,1.2,1.2h2.3c0.4,0,0.8-0.2,1-0.5l0.7-0.7l3.6,3.6h-1.8c-0.6,0-1.2,0.5-1.2,1.2 c0,0.6,0.5,1.2,1.2,1.2l0,0h4.2l1.8,1.8c-0.6,0.9-1,1.8-1.2,2.9h-3.1l-2.9-2.8C27,52,27,51.7,27,51.5c0-1.3-1-2.3-2.3-2.3 s-2.3,1-2.3,2.3c0,1.3,1,2.3,2.3,2.3c0.2,0,0.4,0,0.6-0.1l1.2,1.2h-5.3v-1.2c0-0.4-0.2-0.8-0.5-1l-2.1-2.1 c-0.4-0.5-1.1-0.5-1.6-0.1s-0.5,1.1-0.1,1.6c0,0.1,0.1,0.1,0.2,0.2l2,2V55h-3l-4-4c0.1-0.2,0.1-0.4,0.1-0.6c0-1.3-1-2.3-2.3-2.3 s-2.3,1-2.3,2.3c0,1.3,1,2.3,2.3,2.3c0.2,0,0.4,0,0.6-0.1l2.3,2.4H9.4c-0.6-1.1-2.1-1.5-3.2-0.8c-1.1,0.6-1.5,2.1-0.8,3.2 s2.1,1.5,3.2,0.8c0.4-0.2,0.6-0.5,0.8-0.8h3.3l-2.4,2.4c-0.2-0.1-0.4-0.1-0.6-0.1c-1.3,0-2.3,1-2.3,2.3s1,2.3,2.3,2.3 c1.3,0,2.3-1,2.3-2.3c0,0,0,0,0,0c0-0.2,0-0.4-0.1-0.6l4-4h3V58l-2,2c-0.4,0.4-0.5,1.1,0,1.6c0,0,0,0,0,0c0.4,0.4,1.1,0.5,1.6,0 c0,0,0,0,0,0l2.1-2.1c0.4-0.2,0.6-0.6,0.5-1v-1.2h5.3l-1.2,1.2c-0.2-0.1-0.4-0.1-0.6-0.1c-1.3,0-2.3,1.1-2.3,2.3 c0,1.3,1.1,2.3,2.3,2.3c1.3,0,2.3-1,2.3-2.3c0-0.2,0-0.4-0.1-0.6l2.9-2.9h3.1c0.2,1,0.6,2,1.2,2.9l-1.8,1.8h-4.2 c-0.6,0-1.2,0.5-1.2,1.2s0.5,1.2,1.2,1.2H30l-3.6,3.6l-0.7-0.7c-0.2-0.4-0.6-0.6-1-0.5h-2.3c-0.6,0-1.2,0.5-1.2,1.2 s0.5,1.2,1.2,1.2h1.9l0.6,0.6l-1.7,1.7h-5.8c-0.1-0.2-0.2-0.3-0.4-0.5c-0.9-0.9-2.3-0.9-3.2,0c-0.9,0.9-0.9,2.3,0,3.2 c0.9,0.9,2.3,0.9,3.2,0c0.1-0.1,0.3-0.3,0.4-0.5h3.4L17.3,77c-1.2-0.3-2.5,0.4-2.8,1.6c-0.3,1.2,0.4,2.5,1.6,2.8 c1.2,0.3,2.5-0.4,2.8-1.6c0.1-0.4,0.1-0.8,0-1.2l3.5-3.6v3.4c-0.2,0.1-0.4,0.3-0.6,0.4c-0.9,0.9-0.9,2.3,0,3.2 c0.9,0.9,2.3,0.9,3.2,0c0.9-0.9,0.9-2.3,0-3.2c-0.1-0.1-0.2-0.2-0.4-0.3v-5.8l1.7-1.8l0.6,0.6v1.8c0,0.6,0.5,1.2,1.2,1.2 c0.6,0,1.2-0.5,1.2-1.2v-2.3c0-0.4-0.2-0.8-0.5-1l-0.7-0.7l3.6-3.6v1.8c0,0.6,0.5,1.2,1.2,1.2c0.6,0,1.2-0.5,1.2-1.2v-4.1l1.8-1.8 c0.8,0.6,1.8,1,2.9,1.2v3.1l-2.8,2.8c-0.2-0.1-0.4-0.1-0.6-0.1c-1.3,0-2.3,1-2.3,2.3c0,1.3,1,2.3,2.3,2.3c1.3,0,2.3-1,2.3-2.3l0,0 c0-0.2,0-0.4-0.1-0.6l1.2-1.2v6.5h-1.2c-0.4,0-0.8,0.2-1,0.5l-2.1,2.1c-0.4,0.4-0.5,1.1,0,1.6c0,0,0,0,0,0c0.4,0.4,1.1,0.5,1.6,0 c0,0,0,0,0,0l2-2h0.7v1.8l-4,4c-0.2-0.1-0.4-0.1-0.6-0.1c-1.3,0-2.3,1-2.3,2.3c0,1.3,1,2.3,2.3,2.3c1.3,0,2.3-1,2.3-2.3l0,0 c0-0.2,0-0.4-0.1-0.6l2.4-2.4v3.3c-1.1,0.6-1.5,2.1-0.8,3.2c0.6,1.1,2.1,1.5,3.2,0.8c1.1-0.6,1.5-2.1,0.8-3.2 c-0.2-0.4-0.5-0.6-0.8-0.8v-3.3l2.4,2.4c-0.1,0.2-0.1,0.4-0.1,0.6c0,1.3,1,2.3,2.3,2.3c1.3,0,2.3-1,2.3-2.3c0-1.3-1-2.3-2.3-2.3 l0,0c-0.2,0-0.4,0-0.6,0.1l-4-4v-1.8h0.7l2,2c0.4,0.4,1.1,0.5,1.6,0c0,0,0,0,0,0c0.4-0.4,0.5-1.1,0-1.6c0,0,0,0,0,0L43,76.3 c-0.2-0.4-0.6-0.6-1-0.5h-1.1v-6.5l1.2,1.2C42.1,70.7,42,71,42,71.2c0,1.3,1,2.3,2.3,2.3c1.3,0,2.3-1,2.3-2.3c0-1.3-1-2.3-2.3-2.3 l0,0c-0.2,0-0.4,0-0.6,0.1l-2.8-2.8V63c1-0.2,2-0.6,2.9-1.2l1.8,1.8v4.2c0,0.6,0.5,1.2,1.2,1.2c0.6,0,1.2-0.5,1.2-1.2v-1.9 l3.6,3.6l-0.7,0.7c-0.4,0.2-0.6,0.6-0.5,1v2.3c0,0.6,0.5,1.2,1.2,1.2c0.6,0,1.2-0.5,1.2-1.2v-1.8L53,71l1.7,1.7v5.6 c-1.1,0.6-1.5,2.1-0.8,3.2c0.6,1.1,2.1,1.5,3.2,0.8c1.1-0.6,1.5-2.1,0.8-3.2c-0.2-0.4-0.5-0.6-0.8-0.8v-3.3l3.5,3.6 c-0.3,1.2,0.4,2.5,1.6,2.8s2.5-0.4,2.8-1.6c0.3-1.2-0.4-2.5-1.6-2.8c-0.4-0.1-0.8-0.1-1.2,0l-3.5-3.6H62c0.1,0.2,0.2,0.3,0.4,0.5 c0.9,0.9,2.3,0.9,3.2,0c0.9-0.9,0.9-2.3,0-3.2c-0.9-0.9-2.3-0.9-3.2,0c-0.1,0.1-0.3,0.3-0.4,0.5h-5.7l-1.7-1.7l0.6-0.6H57 c0.6,0,1.2-0.5,1.2-1.2s-0.5-1.2-1.2-1.2l0,0h-2.3c-0.4,0-0.8,0.2-1,0.5L53,67.8l-3.6-3.6h1.8c0.6,0,1.2-0.5,1.2-1.2 c0-0.6-0.5-1.2-1.2-1.2h-4.2l-1.8-1.8c0.6-0.8,1-1.8,1.2-2.9h3.1l2.8,2.8c-0.1,0.2-0.1,0.4-0.1,0.6c0,1.3,1,2.3,2.3,2.3 s2.3-1,2.3-2.3c0-1.3-1-2.3-2.3-2.3c-0.2,0-0.4,0-0.6,0.1l-1.2-1.2h5.3v1.2c0,0.4,0.2,0.8,0.5,1l2.1,2.1c0.4,0.4,1.1,0.5,1.6,0 c0,0,0,0,0,0c0.4-0.4,0.5-1.1,0-1.6c0,0,0,0,0,0l-2-2v-0.6h3l4,4c-0.1,0.2-0.1,0.4-0.1,0.6c0,1.3,1,2.3,2.3,2.3 c1.3,0,2.3-1,2.3-2.3c0-1.3-1-2.3-2.3-2.3l0,0c-0.2,0-0.4,0-0.6,0.1l-2.3-2.4H70c0.6,1.1,2,1.5,3.2,0.9s1.5-2,0.9-3.2 C73.6,54.3,72.8,53.8,72,53.8z M43.2,59.2c-0.2,0.1-0.3,0.2-0.4,0.4c-1.7,1.6-4.4,1.6-6.1,0c-0.1-0.2-0.2-0.3-0.4-0.4 c-1.6-1.7-1.6-4.4,0-6.1c0.1,0,0.1-0.1,0.2-0.2c0.1-0.1,0.1-0.1,0.2-0.2c1.7-1.6,4.4-1.6,6.1,0c0,0.1,0.1,0.2,0.2,0.2 c0.1,0.1,0.1,0.1,0.2,0.2C44.7,54.8,44.7,57.5,43.2,59.2z"/>
<g opacity="0.5" fill="#21395B">
	<ellipse opacity="0.2" cx="40.3" cy="50.4" rx="30.2" ry="18.3"/>
	<ellipse opacity="0.2" cx="40.4" cy="51.7" rx="28.6" ry="15.8"/>
	<ellipse opacity="0.2" cx="40.8" cy="52.4" rx="27.1" ry="12.7"/>
	<ellipse opacity="0.2" cx="40.6" cy="52.4" rx="23.9" ry="10.3"/>
	<ellipse opacity="0.2" cx="40.6" cy="52.9" rx="23.9" ry="7.9"/>
</g>
<path fill="#E4F4FE" d="M45,84.3l-3.7-3.6c-0.1-0.1-0.1-0.4,0-0.5c0.1-0.1,0.2-0.1,0.2-0.1h2.6c0.2,0,0.3-0.2,0.3-0.4 c0-0.1,0-0.2-0.1-0.2l-3.4-3.9c-0.1-0.1-0.1-0.4,0-0.5c0.1-0.1,0.2-0.1,0.2-0.1h1.1c0.2,0,0.4-0.1,0.4-0.3c0-0.1,0-0.2-0.1-0.2 L40,71.2c-0.1-0.1-0.3-0.2-0.5,0c0,0,0,0,0,0l-2.8,3.1c-0.1,0.1-0.1,0.4,0,0.5c0.1,0.1,0.1,0.1,0.2,0.1l2,0.1v0.2l-4,4.3 c-0.1,0.1-0.1,0.4,0,0.5c0.1,0.1,0.2,0.1,0.2,0.1h2.7c0.2,0,0.4,0.2,0.4,0.3c0,0.1,0,0.2-0.1,0.2l-3.5,3.9c-0.1,0.1-0.1,0.4,0,0.5 c0.1,0.1,0.2,0.1,0.3,0.1l3.5-0.1c0.2,0,0.4,0.1,0.4,0.3c0,0,0,0,0,0v1.2c0,0.2,0.1,0.3,0.3,0.3h1.6c0.2,0,0.4-0.2,0.4-0.3 c0,0,0,0,0,0l0-1.3c0-0.2,0.1-0.3,0.3-0.4l3.5-0.1c0.2,0,0.3-0.2,0.3-0.4C45.1,84.5,45.1,84.4,45,84.3z"/>
<path fill="#E4F4FE" d="M31.5,82.4l-2-1.9c-0.1-0.1-0.1-0.4,0-0.5c0.1-0.1,0.2-0.1,0.2-0.1h1.1c0.2,0,0.3-0.2,0.3-0.4 c0-0.1,0-0.2-0.1-0.2l-2.4-2.8l1.7,0.1l-1.9-2.4c-0.1-0.1-0.3-0.2-0.5,0c0,0,0,0,0,0l-1.5,1.7c-0.1,0.1-0.1,0.4,0,0.5 c0.1,0.1,0.1,0.1,0.2,0.1h1v0.2l-2.4,2.6c-0.1,0.1-0.1,0.4,0,0.5c0.1,0.1,0.2,0.1,0.2,0.1h1.2c0.2,0,0.4,0.2,0.4,0.3 c0,0.1,0,0.2-0.1,0.2l-1.9,2.1c-0.1,0.1-0.1,0.4,0,0.5c0.1,0.1,0.2,0.1,0.3,0.1h1.9c0.2,0,0.4,0.1,0.4,0.3c0,0,0,0,0,0V84 c0,0.2,0.1,0.4,0.3,0.4c0,0,0,0,0,0h0.8c0.2,0,0.4-0.2,0.4-0.3c0,0,0,0,0,0v-0.6c0-0.2,0.1-0.4,0.3-0.4c0,0,0,0,0,0h1.9 c0.2,0,0.3-0.2,0.3-0.4C31.7,82.6,31.6,82.5,31.5,82.4z"/>
<path fill="#E4F4FE" d="M54.7,82.4l-2-1.9c-0.1-0.1-0.1-0.4,0-0.5c0.1-0.1,0.2-0.1,0.2-0.1H54c0.2,0,0.3-0.2,0.3-0.4 c0-0.1,0-0.2-0.1-0.2l-2.4-2.8l1.7,0.1l-1.9-2.4c-0.1-0.1-0.3-0.2-0.5,0c0,0,0,0,0,0l-1.5,1.7c-0.1,0.1-0.1,0.4,0,0.5 c0.1,0.1,0.1,0.1,0.2,0.1h1v0.2l-2.4,2.6c-0.1,0.1-0.1,0.4,0,0.5c0.1,0.1,0.2,0.1,0.2,0.1H50c0.2,0,0.4,0.2,0.4,0.3 c0,0.1,0,0.2-0.1,0.2l-1.9,2.1c-0.1,0.1-0.1,0.4,0,0.5c0.1,0.1,0.2,0.1,0.3,0.1h1.8c0.2,0,0.4,0.1,0.4,0.3c0,0,0,0,0,0V84 c0,0.2,0.1,0.4,0.3,0.4c0,0,0,0,0,0H52c0.2,0,0.4-0.2,0.4-0.3c0,0,0,0,0,0v-0.6c0-0.2,0.1-0.4,0.3-0.4c0,0,0,0,0,0h1.8 c0.2,0,0.3-0.2,0.3-0.4C54.8,82.5,54.7,82.5,54.7,82.4z"/>
<path fill="#FFFFFF" d="M39.7,24c1.2,0,2.2,1,2.2,2.2c0,1.2-1,2.2-2.2,2.2s-2.2-1-2.2-2.2l0,0C37.5,25,38.5,24,39.7,24 M39.7,21.6 c-2.6,0-4.7,2.1-4.7,4.7s2.1,4.7,4.7,4.7s4.7-2.1,4.7-4.7v0C44.4,23.7,42.3,21.6,39.7,21.6z"/>
<path opacity="0.5" fill="#234B6D" d="M42.2,16.6l-2.3,7.3l1,0.4c0,0,0.5-2.1,1.1-2.2s1-5.5,1-5.5 l-1-0.1L42.2,16.6z"/>
<path fill="#FF6D2D" d="M39.4,26.1c-0.4,0-0.8-0.2-0.9-0.6c-0.7-1.7-1.1-3.6-1.1-5.4c0-1.7,0.5-3.3,1.5-4.6c0.4-0.4,1-0.5,1.4-0.1 c0.4,0.4,0.5,1,0.1,1.4c-0.7,1-1,2.1-1,3.3c0,1.6,0.3,3.1,0.9,4.6c0.2,0.5,0,1.1-0.5,1.3C39.7,26.1,39.6,26.1,39.4,26.1L39.4,26.1"/>
<path fill="#FF6D2D" d="M39.8,26.1c-0.6,0-1-0.4-1-1c0-3.2,0.6-6.4,1.8-9.4c0.2-0.5,0.8-0.8,1.3-0.5c0.5,0.2,0.8,0.8,0.5,1.3 c-1.1,2.7-1.6,5.6-1.6,8.5C40.9,25.6,40.4,26.1,39.8,26.1L39.8,26.1z"/>
</svg>