<?xml version="1.0" encoding="utf-8"?>
<svg version="1.1" xmlns="http://www.w3.org/2000/svg" x="0" y="0" width="37" height="56" viewBox="0 0 37 56" enable-background="new 0 0 37 56" xml:space="preserve">
<path fill="#666460" d="M8.5,28l8.6-8.4h-5.7V0L5.8,0l0,19.6H0L8.5,28z M37,19.6h-5.7V0l-5.6,0v19.6h-5.8l8.5,8.4L37,19.6z"/>
<path fill="#ff7c91" d="M8.5,56l8.6-8.4h-5.7V28H5.8v19.6H0L8.5,56z M37,47.6h-5.7V28h-5.6v19.6h-5.8l8.5,8.4L37,47.6z"/>
</svg>