<?xml version="1.0" encoding="utf-8"?>
<svg version="1.1" xmlns="http://www.w3.org/2000/svg" x="0" y="0" width="27" height="54" viewBox="0 0 27 54" enable-background="new 0 0 27 54" xml:space="preserve">
<circle fill="#666460" cx="13.5" cy="13.5" r="10.8"/>
<circle fill="none" stroke="#666460" stroke-width="2" stroke-miterlimit="10" cx="13.5" cy="13.5" r="12.5"/>
<circle fill="#ff7c91" cx="13.5" cy="40.5" r="10.8"/>
<circle fill="none" stroke="#ff7c91" stroke-width="2" stroke-miterlimit="10" cx="13.5" cy="40.5" r="12.5"/>
</svg>
