<?xml version="1.0" encoding="utf-8"?>
<svg version="1.1" xmlns="http://www.w3.org/2000/svg" x="0" y="0" width="40" height="40" viewBox="0 0 40 40" enable-background="new 0 0 40 40" xml:space="preserve">
<path fill="#514d48" d="M20,0C8.9,0,0,8.9,0,20s8.9,20,20,20c1.8,0,3.3-1.6,3.3-3.3 c0-0.9-0.2-1.6-0.9-2.2c-0.4-0.7-0.9-1.3-0.9-2.2c0-1.8,1.6-3.3,3.3-3.3h4C35.1,28.9,40,24,40,17.8C40,8,31.1,0,20,0z M7.8,20 c-1.8,0-3.3-1.6-3.3-3.3c0-1.8,1.6-3.3,3.3-3.3c1.8,0,3.3,1.6,3.3,3.3C11.1,18.4,9.6,20,7.8,20z M14.4,11.1 c-1.8,0-3.3-1.6-3.3-3.3c0-1.8,1.6-3.3,3.3-3.3c1.8,0,3.3,1.6,3.3,3.3C17.8,9.6,16.2,11.1,14.4,11.1z M25.6,11.1 c-1.8,0-3.3-1.6-3.3-3.3c0-1.8,1.6-3.3,3.3-3.3c1.8,0,3.3,1.6,3.3,3.3C28.9,9.6,27.3,11.1,25.6,11.1z M32.2,20 c-1.8,0-3.3-1.6-3.3-3.3c0-1.8,1.6-3.3,3.3-3.3c1.8,0,3.3,1.6,3.3,3.3C35.6,18.4,34,20,32.2,20z"/>
</svg>
