<?xml version="1.0" encoding="utf-8"?>
<!-- Generator: Adobe Illustrator 16.0.0, SVG Export Plug-In . SVG Version: 6.00 Build 0)  -->
<!DOCTYPE svg PUBLIC "-//W3C//DTD SVG 1.1//EN" "http://www.w3.org/Graphics/SVG/1.1/DTD/svg11.dtd">
<svg version="1.1" xmlns="http://www.w3.org/2000/svg" xmlns:xlink="http://www.w3.org/1999/xlink" x="0px" y="0px" width="19px"
	 height="20px" viewBox="0 0 19 20" style="enable-background:new 0 0 19 20;" xml:space="preserve">
<style type="text/css">
<![CDATA[
	.st0{fill-rule:evenodd;clip-rule:evenodd;fill:#B4B4B5;}
	.st1{display:inline;}
	.st2{display:none;}
]]>
</style>
<g id="Layer_1" class="st2">
	<g class="st1">
		<g>
			<path class="st0" d="M-1.5,1v5h22V1H-1.5z M-1.5,13h22V8h-22V13z M-1.5,20h22v-5h-22V20z"/>
		</g>
	</g>
</g>
<g id="Layer_2">
	<path class="st0" d="M16.1,6.7c0,3.7-3,6.7-6.6,6.7c-3.7,0-6.6-3-6.6-6.7C2.9,3,5.8,0,9.5,0S16.1,3,16.1,6.7z M9.5,15.2
		c1.4,0,2.6-0.3,3.8-1c2.6,0.7,4.8,2.2,5.7,5.7H0c0.9-3.5,3.1-5,5.7-5.7C6.9,14.9,8.1,15.2,9.5,15.2z"/>
</g>
</svg>
