<?xml version="1.0" encoding="utf-8"?>
<svg version="1.1" xmlns="http://www.w3.org/2000/svg" width="22" height="22" x="0" y="0" viewBox="0 0 22 22" enable-background="new 0 0 22 22" xml:space="preserve">
<path fill="#b4b4b5" d="M11,0L0,5.9V22h22V5.9L11,0z M11,10.5c-1.7,0-3-1.3-3-3c0-1.6,1.4-3,3-3s3,1.3,3,3l0,0 C14,9.2,12.7,10.5,11,10.5z"/>
</svg>