<?xml version="1.0" encoding="utf-8"?>
<svg version="1.1" xmlns="http://www.w3.org/2000/svg" width="26" height="15" x="0" y="0" viewBox="0 0 26 15" enable-background="new 0 0 26 15" xml:space="preserve">
<path fill="#F27A90" d="M23.2,10.3c2.1,1.9,2.5,2.9,2.6,3c0.9,1.4-1,1.5-1,1.5h-3.5c0,0-0.7,0.1-1.7-0.5c-1.3-0.9-2.5-3.2-3.5-2.9 c-1,0.3-0.9,2.4-0.9,2.4s0,0.3-0.2,0.5c-0.2,0.3-0.7,0.2-0.7,0.2h-1.5c0,0-3.4,0.4-6.4-2.8C3,8.3,0.1,1.7,0.1,1.7s-0.2-0.4,0-0.6 c0.2-0.2,0.8-0.2,0.8-0.2h3.7c0,0,0.3,0.1,0.6,0.2c0.2,0.1,0.3,0.4,0.3,0.4S6.1,3,6.9,4.4c1.5,2.7,2.3,3.3,2.8,3 c0.8-0.4,0.5-3.8,0.5-3.8s0-1.2-0.4-1.8C9.5,1.4,8.9,1.3,8.7,1.3C8.5,1.2,8.8,0.8,9.2,0.5c0.7-0.3,1.9-0.3,3.3-0.3 c1.1,0,1.4,0.1,1.8,0.2c1.3,0.3,0.8,1.5,0.8,4.4c0,0.9-0.2,2.2,0.5,2.6c0.3,0.2,1,0,2.7-2.9c0.8-1.4,1.4-3,1.4-3s0.1-0.3,0.3-0.4 S20.5,1,20.5,1h3.9c0,0,1.2-0.1,1.4,0.4c0.2,0.6-0.4,1.9-2,4C21.3,8.6,21,8.3,23.2,10.3z"/>
</svg>