<?xml version="1.0" encoding="utf-8"?>
<svg version="1.1" xmlns="http://www.w3.org/2000/svg" width="16" height="16" x="0" y="0" viewBox="0 0 16 16" enable-background="new 0 0 16 16" xml:space="preserve">
<path fill="#F37D94" d="M8,16c-4.4,0-8-3.6-8-8s3.6-8,8-8s8,3.6,8,8S12.4,16,8,16z M8,1.9C4.6,1.9,1.9,4.6,1.9,8s2.7,6.1,6.1,6.1 c3.3,0,6.1-2.8,6.1-6.1S11.3,1.9,8,1.9z M10.9,9.6H7V4.5h1.3v3.8h2.6V9.6z"/>
</svg>