<?xml version="1.0" encoding="utf-8"?>
<svg version="1.1" xmlns="http://www.w3.org/2000/svg" x="0" y="0" viewBox="0 0 10.5 20" enable-background="new 0 0 10.5 20" xml:space="preserve">
<path id="f-2" fill="#FFFFFF" d="M6.8,20v-9.1h3.1l0.5-3.6H6.8V5.1c0-1,0.3-1.7,1.8-1.7h1.9V0.1C9.6,0,8.7,0,7.7,0 C5,0,3.1,1.7,3.1,4.7v2.6H0v3.6h3.1V20L6.8,20z"/>
</svg>