<?xml version="1.0" encoding="UTF-8" standalone="no"?>
<!-- Generator: Adobe Illustrator 16.0.0, SVG Export Plug-In . SVG Version: 6.00 Build 0)  -->

<svg
   xmlns:dc="http://purl.org/dc/elements/1.1/"
   xmlns:cc="http://creativecommons.org/ns#"
   xmlns:rdf="http://www.w3.org/1999/02/22-rdf-syntax-ns#"
   xmlns:svg="http://www.w3.org/2000/svg"
   xmlns="http://www.w3.org/2000/svg"
   xmlns:xlink="http://www.w3.org/1999/xlink"
   xmlns:sodipodi="http://sodipodi.sourceforge.net/DTD/sodipodi-0.dtd"
   xmlns:inkscape="http://www.inkscape.org/namespaces/inkscape"
   version="1.1"
   x="0px"
   y="0px"
   width="110"
   height="26"
   viewBox="0 0 110 25.999999"
   enable-background="new 0 0 25.92 8.807"
   xml:space="preserve"
   id="svg3296"
   inkscape:version="0.48.4 r9939"
   sodipodi:docname="sold-label.svg"><metadata
   id="metadata3318"><rdf:RDF><cc:Work
       rdf:about=""><dc:format>image/svg+xml</dc:format><dc:type
         rdf:resource="http://purl.org/dc/dcmitype/StillImage" /><dc:title></dc:title></cc:Work></rdf:RDF></metadata><defs
   id="defs3316" /><sodipodi:namedview
   pagecolor="#ffffff"
   bordercolor="#666666"
   borderopacity="1"
   objecttolerance="10"
   gridtolerance="10"
   guidetolerance="10"
   inkscape:pageopacity="0"
   inkscape:pageshadow="2"
   inkscape:window-width="1920"
   inkscape:window-height="1018"
   id="namedview3314"
   showgrid="false"
   fit-margin-top="0"
   fit-margin-left="0"
   fit-margin-right="0"
   fit-margin-bottom="0"
   inkscape:zoom="11.033951"
   inkscape:cx="60.508347"
   inkscape:cy="2.3365001"
   inkscape:window-x="-8"
   inkscape:window-y="-8"
   inkscape:window-maximized="1"
   inkscape:current-layer="svg3296" />
<g
   id="Layer_2"
   display="none"
   style="display:none"
   transform="translate(0,19.26)">
	
		<image
   sodipodi:absref="E:\Downloads\labels\DCD404BE.jpg"
   xlink:href="DCD404BE.jpg"
   display="inline"
   overflow="visible"
   width="108"
   height="36"
   transform="matrix(0.24,0,0,0.24,-1.04,22.5898)"
   id="image3299"
   style="display:inline;overflow:visible">
	</image>
</g>
<g
   id="Layer_1"
   transform="matrix(4.2447553,0,0,3.8506568,0,0.04657337)">
	
	<path
   clip-rule="evenodd"
   d="M 0,0.5 H 25.92 V 6.74 H 0 V 0.5 z"
   id="path3304"
   inkscape:connector-curvature="0"
   style="opacity:0.4;fill:#822e3b;fill-rule:evenodd" />
	<path
   clip-rule="evenodd"
   d="M 0,0 H 25.92 V 6.24 H 0 V 0 z"
   id="path3306"
   inkscape:connector-curvature="0"
   style="fill:#f16178;fill-rule:evenodd" />
	<g
   id="g3308">
		<g
   id="g3310">
			<path
   d="M 4.836,4.354 H 5.428 V 1.857 H 6.487 V 4.354 H 7.079 V 1.331 H 4.836 v 3.023 z m 3.88,-2.22 C 8.569,2.134 8.445,2.16 8.342,2.212 8.239,2.264 8.152,2.345 8.076,2.454 H 8.059 L 7.995,2.194 H 7.585 V 5.218 H 8.147 V 4.333 C 8.205,4.362 8.262,4.383 8.32,4.396 8.378,4.409 8.451,4.415 8.54,4.415 8.698,4.415 8.839,4.388 8.962,4.333 9.084,4.278 9.188,4.199 9.273,4.096 9.356,3.991 9.42,3.866 9.463,3.717 9.506,3.568 9.527,3.402 9.527,3.218 9.527,2.838 9.46,2.562 9.324,2.391 9.19,2.219 8.987,2.134 8.716,2.134 z M 8.829,3.769 C 8.748,3.883 8.627,3.939 8.466,3.939 8.388,3.939 8.325,3.93 8.278,3.911 8.23,3.893 8.186,3.868 8.146,3.836 V 2.938 C 8.18,2.828 8.229,2.746 8.291,2.691 8.353,2.636 8.438,2.609 8.548,2.609 c 0.142,0 0.243,0.052 0.307,0.156 0.063,0.104 0.096,0.25 0.096,0.44 C 8.95,3.467 8.909,3.655 8.829,3.769 z M 11.597,2.447 C 11.514,2.348 11.409,2.271 11.282,2.216 11.155,2.161 11.006,2.134 10.833,2.134 10.511,2.134 10.26,2.233 10.081,2.43 9.903,2.627 9.813,2.909 9.813,3.274 c 0,0.17 0.021,0.325 0.063,0.466 0.042,0.141 0.105,0.262 0.19,0.361 0.085,0.099 0.19,0.176 0.317,0.231 0.127,0.055 0.276,0.082 0.449,0.082 0.322,0 0.572,-0.098 0.75,-0.296 0.177,-0.197 0.266,-0.479 0.266,-0.844 0,-0.17 -0.021,-0.326 -0.063,-0.467 -0.041,-0.14 -0.104,-0.261 -0.188,-0.36 z M 11.161,3.78 C 11.09,3.886 10.98,3.94 10.833,3.94 10.756,3.94 10.688,3.923 10.632,3.891 10.576,3.858 10.531,3.811 10.496,3.75 10.462,3.689 10.435,3.619 10.419,3.538 10.401,3.457 10.393,3.37 10.393,3.275 c 0,-0.236 0.039,-0.406 0.116,-0.51 0.078,-0.104 0.187,-0.156 0.324,-0.156 0.158,0 0.271,0.062 0.337,0.184 0.066,0.123 0.1,0.283 0.1,0.482 -10e-4,0.23 -0.037,0.398 -0.109,0.505 z m 2.907,-1.586 h -1.503 c 0,0.268 -0.013,0.5 -0.039,0.695 -0.025,0.196 -0.057,0.36 -0.093,0.493 -0.036,0.133 -0.072,0.237 -0.107,0.313 -0.036,0.077 -0.066,0.13 -0.089,0.162 h -0.255 v 0.989 h 0.41 l 0.064,-0.492 h 1.452 l 0.064,0.492 h 0.41 V 3.857 H 14.067 V 2.194 z M 13.506,3.883 H 12.798 C 12.832,3.82 12.864,3.74 12.893,3.646 12.922,3.551 12.948,3.449 12.969,3.339 12.99,3.229 13.008,3.116 13.023,3 13.038,2.884 13.047,2.773 13.053,2.669 h 0.453 V 3.883 z M 16.334,3.667 C 16.335,3.543 16.34,3.417 16.349,3.289 16.358,3.161 16.362,3.033 16.362,2.907 16.362,2.792 16.35,2.688 16.326,2.596 16.302,2.504 16.26,2.425 16.201,2.358 16.141,2.292 16.061,2.241 15.961,2.205 15.861,2.169 15.734,2.151 15.585,2.151 c -0.173,0 -0.338,0.015 -0.497,0.045 -0.158,0.03 -0.295,0.071 -0.41,0.124 l 0.134,0.419 c 0.081,-0.038 0.184,-0.068 0.31,-0.091 0.125,-0.023 0.244,-0.035 0.356,-0.035 0.149,0 0.246,0.035 0.289,0.106 0.043,0.07 0.055,0.187 0.034,0.348 -0.189,-0.009 -0.362,-0.002 -0.516,0.02 -0.154,0.021 -0.287,0.061 -0.397,0.117 -0.111,0.056 -0.196,0.129 -0.255,0.22 -0.06,0.091 -0.089,0.202 -0.089,0.335 0,0.095 0.016,0.181 0.048,0.257 0.031,0.076 0.076,0.143 0.134,0.199 0.058,0.056 0.127,0.1 0.207,0.129 0.081,0.03 0.172,0.046 0.272,0.046 0.161,0 0.293,-0.033 0.396,-0.098 0.102,-0.064 0.182,-0.142 0.239,-0.231 h 0.021 l 0.091,0.298 H 16.41 C 16.376,4.255 16.354,4.146 16.346,4.028 16.336,3.912 16.333,3.792 16.334,3.667 z M 15.805,3.689 C 15.773,3.747 15.724,3.801 15.658,3.851 15.593,3.901 15.503,3.927 15.39,3.927 15.307,3.927 15.242,3.905 15.194,3.86 15.146,3.815 15.123,3.753 15.123,3.672 15.123,3.614 15.142,3.567 15.179,3.529 15.217,3.491 15.267,3.463 15.33,3.443 15.393,3.423 15.467,3.41 15.549,3.404 15.631,3.398 15.716,3.4 15.806,3.408 V 3.689 z M 18.099,3.006 H 17.395 V 2.194 h -0.562 v 2.16 h 0.562 V 3.503 h 0.704 v 0.851 h 0.562 V 2.194 H 18.099 V 3.006 z M 21.021,2.808 C 20.98,2.667 20.917,2.547 20.833,2.447 20.749,2.348 20.645,2.271 20.518,2.216 20.391,2.161 20.242,2.134 20.069,2.134 c -0.322,0 -0.573,0.099 -0.752,0.296 -0.179,0.197 -0.268,0.479 -0.268,0.845 0,0.17 0.021,0.325 0.063,0.466 0.042,0.141 0.105,0.262 0.19,0.361 0.085,0.099 0.19,0.176 0.317,0.231 0.127,0.055 0.276,0.082 0.449,0.082 0.322,0 0.572,-0.098 0.749,-0.296 0.178,-0.197 0.266,-0.479 0.266,-0.844 0,-0.171 -0.02,-0.326 -0.062,-0.467 z M 20.397,3.78 C 20.325,3.886 20.215,3.94 20.069,3.94 19.991,3.94 19.924,3.923 19.868,3.891 19.812,3.858 19.766,3.811 19.732,3.75 19.697,3.689 19.671,3.619 19.654,3.538 19.637,3.457 19.629,3.37 19.629,3.275 c 0,-0.236 0.038,-0.406 0.116,-0.51 0.078,-0.104 0.186,-0.156 0.324,-0.156 0.158,0 0.271,0.062 0.337,0.184 0.066,0.123 0.1,0.283 0.1,0.482 -0.001,0.23 -0.037,0.398 -0.109,0.505 z"
   id="path3312"
   inkscape:connector-curvature="0"
   style="fill:#ffffff" />
		</g>
	</g>
</g>
</svg>