<?xml version="1.0" encoding="UTF-8" standalone="no"?>
<svg id="Слой_1" xmlns:rdf="http://www.w3.org/1999/02/22-rdf-syntax-ns#" xmlns="http://www.w3.org/2000/svg" enable-background="new 0 0 131.3 146.1" xml:space="preserve" viewBox="0 0 128 139.99999" height="140" width="128" version="1.1" y="0px" x="0px" xmlns:cc="http://creativecommons.org/ns#" xmlns:dc="http://purl.org/dc/elements/1.1/"><metadata id="metadata177"><rdf:RDF><cc:Work rdf:about=""><dc:format>image/svg+xml</dc:format><dc:type rdf:resource="http://purl.org/dc/dcmitype/StillImage"/><dc:title/></cc:Work></rdf:RDF></metadata>
<g id="g3" transform="matrix(.99844 0 0 .99644 -3.195 -3.4875)">
	<g id="g5">
		<path id="path7" style="fill:#ffffff" d="m130.8 80.8c0-2.9-1-5.6-2.7-7.8 1.7-2.1 2.7-4.8 2.7-7.8 0-4.2-2.1-7.9-5.3-10.2 2.1-2.5 3.4-5.8 3.4-9.3 0-8.1-6.5-14.6-14.6-14.6-.8 0-1.5.1-2.2.2-.9-6-6.1-10.5-12.3-10.5-.7 0-1.4.1-2.1.2-1.8-4.6-6.3-7.9-11.6-7.9-1.7 0-3.3.3-4.8 1-2-5.8-7.4-9.9-13.9-9.9-6.4 0-11.9 4.2-13.9 9.9-1.5-.6-3.1-1-4.8-1-5.3 0-9.8 3.3-11.6 7.9-.7-.1-1.4-.2-2.1-.2-6.2 0-11.4 4.6-12.3 10.5-.7-.1-1.5-.2-2.2-.2-8.1 0-14.6 6.5-14.6 14.6 0 3.6 1.3 6.8 3.4 9.3-3.2 2.3-5.3 6-5.3 10.2 0 2.9 1 5.6 2.7 7.8-1.7 2.1-2.7 4.8-2.7 7.8 0 4 1.9 7.6 4.9 9.9-2.3 2.6-3.7 6-3.7 9.7 0 8.1 6.5 14.6 14.6 14.6 1 0 1.9-.1 2.8-.3.6 6.4 6 11.4 12.5 11.4.7 0 1.4-.1 2.1-.2 1.8 4.8 6.4 8.2 11.8 8.2 1.6 0 3.2-.3 4.6-.9 1.9 5.9 7.4 10.2 14 10.2 6.5 0 12.1-4.3 14-10.2 1.4.6 3 .9 4.6.9 5.4 0 10-3.4 11.8-8.2.7.1 1.4.2 2.1.2 6.5 0 11.9-5 12.5-11.4.9.2 1.8.3 2.8.3 8.1 0 14.6-6.5 14.6-14.6 0-3.7-1.4-7.2-3.7-9.7 2.5-2.2 4.5-5.8 4.5-9.9z"/>
	</g>
	<g id="g9">
		<g id="g11">
			<path id="path13" style="fill:#005da1" d="m128.2 73.9c-.2 0-.4-.1-.5-.2l-.2-.2c-.2-.2-.2-.5 0-.7l.2-.2c.2-.3.6-.3.8-.1s.3.5.2.7c.1.2 0 .5-.2.7 0-.1-.1 0-.3 0z"/>
		</g>
		<g id="g15">
			<path id="path17" style="fill:#005da1" d="m129.5 71.5c-.1 0-.2 0-.3-.1-.3-.1-.4-.5-.3-.8.1-.2.2-.3.2-.5.1-.3.5-.4.8-.3s.4.5.3.8c-.1.2-.2.4-.3.5 0 .2-.2.4-.4.4zm.9-2.8h-.1c-.3-.1-.5-.4-.4-.7 0-.2.1-.4.1-.5.1-.3.4-.5.7-.5.3.1.5.4.5.7 0 .2-.1.4-.1.6-.2.3-.4.4-.7.4zm.4-2.8c-.3 0-.6-.3-.6-.6v-.6c0-.3.2-.6.6-.6.3 0 .6.2.6.6v.6c-.1.3-.3.6-.6.6zm-.4-2.9c-.3 0-.5-.2-.6-.5 0-.2-.1-.4-.1-.5-.1-.3.1-.6.4-.7s.6.1.7.4c.1.2.1.4.2.6.1.3-.1.6-.4.7h-.2zm-1-2.7c-.2 0-.4-.1-.5-.3s-.2-.3-.3-.5c-.2-.3-.1-.6.2-.8s.6-.1.8.2c.1.2.2.4.3.5.1.3 0 .6-.3.8 0 .1-.1.1-.2.1zm-1.6-2.4c-.2 0-.3-.1-.4-.2s-.2-.3-.4-.4c-.2-.2-.2-.6 0-.8s.6-.2.8 0c.1.1.3.3.4.5.2.2.2.6-.1.8 0 0-.1.1-.3.1z"/>
		</g>
		<g id="g19">
			<path id="path21" style="fill:#005da1" d="m125.7 55.9c-.1 0-.2 0-.3-.1l-.2-.2c-.1-.1-.2-.2-.2-.4s0-.3.1-.5l.2-.2c.2-.3.6-.3.8-.1.2.1.3.4.2.6.1.2.1.4-.1.6-.1.2-.3.3-.5.3z"/>
		</g>
		<g id="g23">
			<path id="path25" style="fill:#005da1" d="m127 53.5c-.1 0-.2 0-.3-.1-.3-.2-.4-.5-.2-.8.1-.2.2-.3.3-.5.1-.3.5-.4.8-.3s.4.5.3.8c-.1.2-.2.4-.3.5-.2.3-.4.4-.6.4zm1.2-2.6h-.2c-.3-.1-.5-.4-.4-.7.1-.2.1-.4.2-.5.1-.3.4-.5.7-.4s.5.4.4.7c-.1.2-.1.4-.2.6 0 .1-.3.3-.5.3zm.6-2.9c-.4 0-.6-.3-.6-.6 0-.2 0-.4.1-.6 0-.3.3-.6.6-.5.3 0 .6.3.5.6 0 .2 0 .4-.1.6 0 .3-.2.5-.5.5zm0-2.9c-.3 0-.6-.2-.6-.5 0-.2 0-.4-.1-.6 0-.3.2-.6.5-.7.3 0 .6.2.7.5 0 .2 0 .4.1.6 0 .3-.2.6-.6.7.1 0 0 0 0 0zm-.5-2.9c-.3 0-.5-.2-.6-.4s-.1-.4-.2-.5c-.1-.3.1-.6.4-.7s.6.1.7.4c.1.2.1.4.2.6.1.3-.1.6-.4.7 0-.1-.1-.1-.1-.1zm-1.2-2.7c-.2 0-.4-.1-.5-.3s-.2-.3-.3-.5c-.2-.3-.1-.6.2-.8s.6-.1.8.2c.1.2.2.4.3.5.2.3 0 .6-.2.8-.1 0-.2.1-.3.1zm-1.6-2.5c-.2 0-.3-.1-.4-.2s-.2-.3-.4-.4c-.2-.2-.2-.6 0-.8s.6-.2.8 0c.1.2.3.3.4.5.2.2.2.6-.1.8 0 .1-.2.1-.3.1zm-2.1-2c-.1 0-.3 0-.4-.1s-.3-.2-.4-.3c-.3-.2-.3-.6-.1-.8.2-.3.6-.3.8-.1.2.1.3.2.5.4.3.2.3.6.1.8-.2 0-.3.1-.5.1zm-2.5-1.6c-.1 0-.2 0-.3-.1-.2-.1-.3-.2-.5-.2-.3-.1-.4-.5-.3-.8s.5-.4.8-.3c.2.1.4.2.5.3.3.1.4.5.3.8-.1.2-.3.3-.5.3zm-2.7-1.1h-.2c-.2 0-.4-.1-.5-.1-.3-.1-.5-.4-.4-.7s.4-.5.7-.4c.2 0 .4.1.6.2.3.1.5.4.4.7-.1.2-.4.3-.6.3zm-2.9-.5h-.6c-.3 0-.6-.3-.6-.6s.3-.6.6-.6h.6c.3 0 .6.3.5.6.1.4-.2.6-.5.6z"/>
		</g>
		<g id="g27">
			<path id="path29" style="fill:#005da1" d="m112.1 32c-.3 0-.5-.2-.6-.5v-.3c-.1-.3.2-.6.5-.7.2 0 .5.1.6.3.2.1.4.2.4.5s-.2.6-.5.7c-.2-.1-.3 0-.4 0z"/>
		</g>
		<g id="g31">
			<path id="path33" style="fill:#005da1" d="m111.4 29.5c-.2 0-.5-.1-.5-.4-.1-.2-.1-.3-.2-.5-.1-.3 0-.6.3-.8.3-.1.6 0 .8.3.1.2.2.4.2.5.1.3 0 .6-.3.8-.2.1-.2.1-.3.1zm-1.3-2.5c-.2 0-.4-.1-.5-.3-.1-.1-.2-.3-.3-.4-.2-.3-.1-.6.1-.8.3-.2.6-.1.8.1.1.2.2.3.3.5.2.3.1.6-.2.8 0 .1-.1.1-.2.1zm-1.8-2.2c-.1 0-.3-.1-.4-.2s-.3-.2-.4-.4c-.2-.2-.3-.6-.1-.8s.6-.3.8-.1l.4.4c.2.2.2.6 0 .8 0 .3-.1.3-.3.3zm-2.3-1.7c-.1 0-.2 0-.3-.1-.2-.1-.3-.2-.5-.3-.3-.2-.4-.5-.2-.8s.5-.4.8-.2c.2.1.3.2.5.3.3.2.4.5.2.8-.1.2-.3.3-.5.3zm-2.5-1.1h-.2c-.2-.1-.3-.1-.5-.1-.3-.1-.5-.4-.4-.7s.4-.5.7-.4c.2.1.4.1.6.2.3.1.5.4.4.7-.1.1-.4.3-.6.3zm-2.8-.5h-.6c-.3 0-.6-.3-.6-.6s.3-.6.6-.6h.6c.3 0 .6.3.5.6.1.3-.2.6-.5.6z"/>
		</g>
		<g id="g35">
			<path id="path37" style="fill:#005da1" d="m97.6 21.6c-.2 0-.5-.1-.5-.4 0-.1-.1-.2-.1-.3-.1-.3 0-.6.3-.8.2-.1.5 0 .7.2.3 0 .5.2.5.5s-.2.6-.5.7h-.3c0 .1-.1.1-.1.1z"/>
		</g>
		<g id="g39">
			<path id="path41" style="fill:#005da1" d="m96.4 19.3c-.2 0-.4-.1-.5-.3s-.2-.3-.3-.4c-.2-.3-.1-.6.1-.8.3-.2.6-.1.8.1.1.2.2.3.3.5.2.3.1.6-.2.8 0 .1-.1.1-.2.1zm-1.8-2.1c-.1 0-.3-.1-.4-.2s-.3-.2-.4-.4c-.2-.2-.3-.6-.1-.8s.6-.3.8-.1l.4.4c.2.2.2.6 0 .8 0 .2-.1.3-.3.3zm-2.2-1.8c-.1 0-.2 0-.3-.1-.2-.1-.3-.2-.5-.3-.3-.2-.4-.5-.2-.8s.5-.4.8-.2c.2.1.3.2.5.3.3.2.4.5.2.8-.1.2-.3.3-.5.3zm-2.6-1.1h-.2c-.2-.1-.3-.1-.5-.2-.3-.1-.5-.4-.4-.7s.4-.5.7-.4c.2.1.4.1.6.2.3.1.5.4.4.7-.1.2-.4.4-.6.4zm-6.2-.4c-.3 0-.5-.2-.6-.5s.1-.6.5-.7c.2 0 .4-.1.6-.1.3 0 .6.2.7.5 0 .3-.2.6-.5.7-.2 0-.4.1-.5.1h-.2zm3.4-.2h-.6c-.3 0-.6-.3-.6-.6s.3-.6.6-.6h.6c.3 0 .6.3.5.6.1.4-.2.6-.5.6z"/>
		</g>
		<g id="g43">
			<path id="path45" style="fill:#005da1" d="m81.2 14.6c-.1 0-.2 0-.2-.1-.1-.1-.3-.2-.3-.3s-.1-.2-.1-.3c-.1-.3 0-.6.4-.8.2-.1.5 0 .6.1.2 0 .4.2.5.4.1.3 0 .6-.3.8-.1 0-.2.1-.3.1-.2.1-.3.1-.3.1z"/>
		</g>
		<g id="g47">
			<path id="path49" style="fill:#005da1" d="m80.1 12.1c-.2 0-.4-.1-.5-.3s-.2-.3-.3-.5c-.2-.3-.1-.6.2-.8s.6-.1.8.2c.1.2.2.4.3.5.2.3.1.6-.2.8-.2.1-.3.1-.3.1zm-25.6 0c-.1 0-.2 0-.3-.1-.3-.2-.4-.5-.2-.8.1-.2.2-.4.3-.5.2-.3.5-.4.8-.2s.4.5.2.8c-.1.2-.2.3-.3.5s-.3.3-.5.3zm23.8-2.4c-.2 0-.3-.1-.4-.2l-.4-.4c-.2-.2-.2-.6 0-.8s.6-.2.8 0c.1.2.3.3.4.5.2.2.2.6-.1.8 0 0-.2.1-.3.1zm-22 0c-.1 0-.3 0-.4-.1-.2-.2-.3-.6-.1-.8.1-.2.3-.3.4-.5.2-.2.6-.2.8 0s.2.6 0 .8l-.4.4c0 .1-.2.2-.3.2zm19.8-2.1c-.1 0-.2 0-.4-.1s-.3-.2-.5-.3c-.2-.2-.3-.6-.1-.9s.5-.3.8-.2c.2.1.3.2.5.4.3.2.3.6.1.8-.1.2-.3.3-.4.3zm-17.6 0c-.2 0-.4-.1-.5-.2-.2-.3-.1-.6.1-.8.2-.1.3-.2.5-.4.3-.2.6-.1.8.2s.1.6-.2.8c-.2.1-.3.2-.5.3 0 .1-.1.1-.2.1zm15-1.5c-.1 0-.2 0-.2-.1-.2-.1-.4-.2-.5-.2-.3-.1-.4-.5-.3-.8s.5-.4.8-.3l.6.3c.1.1.2.4.1.7-.1.2-.3.4-.5.4zm-12.4-.1c-.2 0-.4-.1-.5-.3-.1-.3 0-.6.3-.8l.6-.3c.3-.1.6 0 .8.3.1.3 0 .6-.3.8-.2.1-.4.2-.5.2-.2.1-.3.1-.4.1zm9.5-.9h-.1c-.2 0-.4-.1-.6-.1-.3-.1-.5-.4-.5-.7.1-.3.4-.5.7-.5.2 0 .4.1.6.1.3.1.5.4.5.7-.1.3-.3.5-.6.5zm-6.6 0c-.3 0-.5-.2-.6-.5s.1-.6.4-.7c.2 0 .4-.1.6-.1.3-.1.6.1.7.5.1.3-.2.6-.5.7h-.5c0 .1-.1.1-.1.1zm3.6-.4h-.6c-.3 0-.6-.3-.6-.6s.3-.6.6-.6h.6c.3 0 .6.3.6.6s-.3.6-.6.6z"/>
		</g>
		<g id="g51">
			<path id="path53" style="fill:#005da1" d="m53.4 14.6h-.2c-.1 0-.2-.1-.3-.1-.3-.1-.5-.5-.3-.8.1-.2.3-.4.5-.4.2-.2.4-.2.6-.1.3.1.5.4.4.8 0 .1-.1.2-.1.3-.1.2-.2.3-.3.3h-.3z"/>
		</g>
		<g id="g55">
			<path id="path57" style="fill:#005da1" d="m38.1 19.3c-.1 0-.2 0-.3-.1-.3-.2-.3-.5-.2-.8.1-.2.2-.3.3-.5.2-.3.6-.3.8-.1.3.2.3.6.1.8-.1.1-.2.3-.3.4 0 .2-.2.3-.4.3zm1.8-2.1c-.2 0-.3-.1-.4-.2-.2-.2-.2-.6 0-.8l.4-.4c.2-.2.6-.2.8.1.2.2.2.6-.1.8-.1.1-.3.2-.4.4 0 0-.1.1-.3.1zm2.3-1.8c-.2 0-.4-.1-.5-.3-.2-.3-.1-.6.2-.8.2-.1.3-.2.5-.3.3-.2.6 0 .8.2.2.3 0 .6-.2.8-.2.1-.3.2-.5.3-.1.1-.2.1-.3.1zm2.6-1.1c-.2 0-.5-.2-.6-.4-.1-.3.1-.6.4-.7.2-.1.4-.1.6-.2.3-.1.6.1.7.4s-.1.6-.4.7c-.2 0-.3.1-.5.2h-.2zm6.1-.4h-.1c-.2 0-.4-.1-.5-.1-.3 0-.5-.3-.5-.7 0-.3.3-.5.7-.5.2 0 .4.1.6.1.3.1.5.4.5.7-.1.3-.4.5-.7.5zm-3.4-.2c-.3 0-.6-.2-.6-.5s.2-.6.5-.6h.6c.3 0 .6.2.6.6 0 .3-.2.6-.6.6 0-.1-.2-.1-.5-.1.1 0 .1 0 0 0z"/>
		</g>
		<g id="g59">
			<path id="path61" style="fill:#005da1" d="m37 21.6h-.1-.3c-.3 0-.5-.3-.5-.7 0-.3.3-.5.5-.5.2-.2.4-.3.7-.2s.4.5.3.8c0 .1-.1.2-.1.3-.1.2-.3.3-.5.3z"/>
		</g>
		<g id="g63">
			<path id="path65" style="fill:#005da1" d="m23.1 29.5h-.2c-.3-.1-.5-.5-.3-.8.1-.2.1-.4.2-.5.1-.3.5-.4.8-.3s.4.5.3.8c-.1.2-.1.3-.2.5s-.3.3-.6.3zm1.3-2.5c-.1 0-.2 0-.3-.1-.3-.2-.3-.5-.2-.8.1-.2.2-.3.3-.5.2-.3.6-.3.8-.1.3.2.3.6.1.8-.1.1-.2.3-.3.4 0 .2-.2.3-.4.3zm1.9-2.2c-.2 0-.3-.1-.4-.2-.2-.2-.2-.6 0-.8l.4-.4c.2-.2.6-.2.8.1s.2.6-.1.8c-.1.1-.3.2-.4.4-.1.1-.2.1-.3.1zm2.2-1.7c-.2 0-.4-.1-.5-.3-.2-.3-.1-.6.2-.8.2-.1.3-.2.5-.3.3-.2.6 0 .8.2.2.3 0 .6-.2.8-.2.1-.3.2-.5.3-.1.1-.2.1-.3.1zm2.6-1.1c-.2 0-.5-.2-.6-.4-.1-.3.1-.6.4-.7.2-.1.4-.1.6-.2.3-.1.6.1.7.4s-.1.6-.4.7c-.2 0-.3.1-.5.1-.1.1-.2.1-.2.1zm2.8-.5c-.3 0-.6-.2-.6-.5s.2-.6.5-.6h.6c.3 0 .6.2.6.6s-.2.6-.6.6c-.1-.2-.3-.2-.5-.1z"/>
		</g>
		<g id="g67">
			<path id="path69" style="fill:#005da1" d="m22.5 32s-.1 0 0 0h-.4c-.3 0-.5-.3-.5-.7 0-.2.2-.4.4-.5.1-.2.4-.3.6-.3.3.1.5.4.5.7v.3c-.1.3-.3.5-.6.5z"/>
		</g>
		<g id="g71">
			<path id="path73" style="fill:#005da1" d="m7.5 53.5c-.2 0-.4-.1-.5-.3s-.2-.4-.3-.5c-.1-.3 0-.6.3-.8.3-.1.6 0 .8.3.1.2.2.3.3.5.2.3.1.6-.2.8h-.4zm-1.1-2.7c-.2 0-.5-.2-.6-.4s-.1-.4-.2-.6c-.1-.3.1-.6.4-.7s.6.1.7.4c.1.2.1.4.2.5.1.3-.1.6-.4.7 0 .1-.1.1-.1.1zm-.6-2.8c-.3 0-.5-.2-.6-.5 0-.2 0-.4-.1-.6 0-.3.2-.6.5-.6s.6.2.6.5c0 .2 0 .4.1.6s-.2.5-.5.6zm-.1-3c-.4 0-.6-.3-.6-.6 0-.2 0-.4.1-.6 0-.3.3-.5.7-.5.3 0 .5.3.5.7 0 .2 0 .4-.1.6 0 .2-.3.4-.6.4zm.6-2.8h-.2c-.3-.1-.5-.4-.4-.7.1-.2.1-.4.2-.6.1-.3.4-.5.7-.4.4.1.5.4.4.7-.1.2-.1.4-.2.5 0 .3-.3.5-.5.5zm1.1-2.7c-.1 0-.2 0-.3-.1-.3-.2-.4-.5-.2-.8.1-.2.2-.4.3-.5.2-.3.5-.4.8-.2s.4.5.2.8c-.1.1-.2.3-.3.4-.1.2-.3.4-.5.4zm1.7-2.5c-.1 0-.3 0-.4-.1-.2-.2-.3-.6-.1-.8.1-.2.3-.3.4-.5.2-.2.6-.3.8 0 .2.2.3.6 0 .8l-.4.4c0 .2-.2.2-.3.2zm2.1-2c-.2 0-.3-.1-.5-.2-.2-.3-.2-.6.1-.8.2-.1.3-.3.5-.4.3-.2.6-.1.8.1.2.3.1.6-.1.8-.2.1-.3.2-.4.3-.2.1-.3.2-.4.2zm2.4-1.6c-.2 0-.4-.1-.5-.3-.1-.3 0-.6.3-.8l.6-.3c.3-.1.6 0 .8.3.1.3 0 .6-.3.8-.2.1-.3.2-.5.2-.2.1-.3.1-.4.1zm2.8-1.1c-.3 0-.5-.2-.6-.4-.1-.3.1-.6.4-.7.2-.1.4-.1.6-.2.3-.1.6.1.7.4s-.1.6-.4.7c-.2 0-.4.1-.5.1-.1.1-.2.1-.2.1zm2.9-.5c-.3 0-.6-.2-.6-.5s.2-.6.5-.6h.6c.3 0 .6.2.6.6 0 .3-.2.6-.6.6-.1-.1-.3-.1-.5-.1z"/>
		</g>
		<g id="g75">
			<path id="path77" style="fill:#005da1" d="m8.8 55.9c-.2 0-.4-.1-.5-.2-.1-.2-.2-.4-.1-.6 0-.2 0-.4.2-.6.3-.2.6-.2.8.1l.2.2c.1.1.2.3.1.5 0 .2-.1.3-.2.4s-.2.1-.2.2h-.3z"/>
		</g>
		<g id="g79">
			<path id="path81" style="fill:#005da1" d="m5.1 71.5c-.2 0-.4-.1-.5-.3s-.2-.4-.3-.5c-.1-.3 0-.6.3-.8.3-.1.6 0 .8.3.1.2.2.3.2.5.1.3 0 .6-.3.8 0-.1-.1 0-.2 0zm-1-2.8c-.3 0-.5-.2-.6-.5 0-.2-.1-.4-.1-.6-.1-.3.2-.6.5-.7s.6.2.7.5c0 .2.1.4.1.5.1.3-.1.6-.4.7-.1.1-.1.1-.2.1zm-.3-2.8c-.3 0-.6-.3-.6-.6v-.6c0-.3.3-.6.6-.6s.6.3.6.6v.6c0 .3-.3.6-.6.6zm.3-2.9h-.1c-.3-.1-.5-.4-.4-.7 0-.2.1-.4.2-.6.1-.3.4-.5.7-.4s.5.4.4.7c-.1.2-.1.4-.1.5-.2.3-.4.5-.7.5zm1-2.7c-.1 0-.2 0-.3-.1-.3-.1-.4-.5-.3-.8.1-.2.2-.4.3-.5.2-.3.5-.4.8-.2s.4.5.2.8c-.1.2-.2.3-.3.5 0 .2-.2.3-.4.3zm1.6-2.4c-.1 0-.3 0-.4-.1-.2-.2-.3-.6-.1-.8.1-.2.3-.3.4-.5.2-.2.6-.3.8 0 .2.2.3.6 0 .8-.1.1-.2.3-.4.4.1.1-.1.2-.3.2z"/>
		</g>
		<g id="g83">
			<path id="path85" style="fill:#005da1" d="m6.3 73.9c-.1 0-.2 0-.4-.1-.2-.2-.3-.5-.2-.7-.1-.2 0-.5.2-.7.3-.2.6-.1.8.1l.2.2c.2.2.2.5 0 .7l-.2.2c0 .2-.2.3-.4.3z"/>
		</g>
		<g id="g87">
			<path id="path89" style="fill:#005da1" d="m6.8 89.6c-.2 0-.3-.1-.4-.2s-.3-.3-.4-.5c-.2-.3-.2-.6.1-.8s.6-.2.8.1c.1.1.2.3.3.4.2.2.2.6-.1.8 0 .1-.1.2-.3.2zm-1.6-2.4c-.2 0-.4-.1-.5-.3s-.2-.4-.3-.5c-.1-.3 0-.6.3-.8.3-.1.6 0 .8.3.1.2.2.3.2.5.2.3 0 .6-.2.8h-.3zm-1-2.6c-.3 0-.5-.2-.6-.4s-.1-.4-.1-.6c-.1-.3.1-.6.5-.7.3-.1.6.1.7.4 0 .2.1.4.1.5.1.3-.1.6-.4.7-.1.1-.1.1-.2.1zm-.4-2.8c-.3 0-.6-.3-.6-.6v-.4-.2c0-.3.3-.6.6-.6s.6.3.6.6v.2.4c0 .3-.3.6-.6.6zm.2-2.8h-.1c-.3-.1-.5-.4-.5-.7 0-.2.1-.4.1-.6.1-.3.4-.5.7-.4s.5.4.4.7c0 .2-.1.3-.1.5 0 .3-.2.5-.5.5zm.9-2.7c-.1 0-.2 0-.2-.1-.3-.1-.4-.5-.3-.8.1-.2.2-.4.3-.5.1-.3.5-.4.8-.3s.4.5.3.8c-.1.2-.2.3-.2.5-.3.3-.5.4-.7.4z"/>
		</g>
		<g id="g91">
			<path id="path93" style="fill:#005da1" d="m8.5 91.5c-.1 0-.3 0-.4-.1-.2-.2-.2-.4-.2-.6-.1-.2-.1-.4.1-.6.2-.3.6-.3.8-.1.1.1.2.1.2.2.1.1.2.2.2.4s0 .3-.1.4l-.2.2c-.1.2-.2.2-.4.2z"/>
		</g>
		<g id="g95">
			<path id="path97" style="fill:#005da1" d="m19.5 115.6h-.5c-.3 0-.6-.3-.6-.6s.3-.6.6-.6h.5.1c.3 0 .6.3.6.6 0 .4-.3.6-.7.6zm-2.9-.3h-.1c-.2 0-.4-.1-.6-.1-.3-.1-.5-.4-.4-.7s.4-.5.7-.4c.2 0 .4.1.6.1.3.1.5.4.5.7-.2.3-.4.4-.7.4zm-2.9-.9h-.2l-.6-.3c-.3-.1-.4-.5-.3-.8s.5-.4.8-.3c.2.1.3.2.5.2.3.1.4.5.3.8 0 .3-.3.4-.5.4zm-2.6-1.5c-.1 0-.2 0-.3-.1-.2-.1-.3-.2-.5-.4-.3-.2-.3-.6-.1-.8.2-.3.6-.3.8-.1.2.1.3.2.5.3.3.2.3.6.1.8-.2.3-.3.3-.5.3zm-2.3-2c-.2 0-.3-.1-.4-.2-.1-.2-.3-.3-.4-.5-.2-.2-.2-.6.1-.8.2-.2.6-.2.8.1l.4.4c.2.2.2.6 0 .8s-.3.2-.5.2zm-1.8-2.4c-.2 0-.4-.1-.5-.3s-.2-.4-.3-.5c-.2-.3 0-.6.2-.8.3-.2.6 0 .8.2.1.2.2.3.3.5.2.3.1.6-.2.8-.1.1-.2.1-.3.1zm-1.3-2.7c-.2 0-.5-.2-.6-.4 0-.2-.1-.4-.1-.6-.1-.3.1-.6.4-.7s.6.1.7.4c.1.2.1.4.2.6.1.3-.1.6-.4.7h-.2zm-.6-3c-.3 0-.5-.2-.6-.5 0-.2 0-.4-.1-.6 0-.3.2-.6.5-.6s.6.2.6.5c0 .2 0 .4.1.6.1.3-.1.6-.5.6zm-.1-3c-.4 0-.6-.3-.6-.6 0-.2 0-.4.1-.6 0-.3.3-.5.7-.5.3 0 .5.3.5.7 0 .2 0 .4-.1.6 0 .2-.3.4-.6.4zm.6-3h-.2c-.3-.1-.5-.4-.4-.7.1-.2.1-.4.2-.6.1-.3.5-.5.8-.4s.5.4.4.7c-.1.2-.1.4-.2.6-.1.3-.4.4-.6.4zm1.2-2.8c-.1 0-.2 0-.3-.1-.3-.2-.4-.5-.2-.8.1-.2.2-.4.3-.5.2-.3.5-.4.8-.2s.4.5.2.8c-.1.2-.2.3-.3.5s-.3.3-.5.3z"/>
		</g>
		<g id="g99">
			<path id="path101" style="fill:#005da1" d="m22.4 115.7c-.2 0-.4-.1-.5-.3-.2-.1-.4-.2-.4-.5-.1-.3.2-.6.5-.7.1 0 .2 0 .3-.1.2 0 .3 0 .5.1.1.1.2.3.2.4v.3c0 .4-.2.7-.6.8z"/>
		</g>
		<g id="g103">
			<path id="path105" style="fill:#005da1" d="m34.3 126.8h-.6c-.3 0-.6-.3-.5-.6 0-.3.3-.6.6-.5h.6c.3 0 .6.3.6.6-.2.2-.4.5-.7.5zm-2.9-.5h-.2c-.2-.1-.4-.1-.6-.2-.3-.1-.5-.4-.4-.7s.4-.5.7-.4c.2.1.4.1.5.2.3.1.5.4.4.7.1.2-.2.4-.4.4zm-2.7-1.2c-.1 0-.2 0-.3-.1-.2-.1-.4-.2-.5-.3-.3-.2-.4-.5-.2-.8s.5-.4.8-.2c.2.1.3.2.5.3.3.2.4.5.2.8-.1.2-.3.3-.5.3zm-2.4-1.7c-.1 0-.3-.1-.4-.2l-.4-.4c-.2-.2-.2-.6 0-.8s.6-.2.8 0l.4.4c.2.2.2.6 0 .8-.1.1-.3.2-.4.2zm-1.9-2.2c-.2 0-.4-.1-.5-.3s-.2-.3-.3-.5c-.2-.3-.1-.6.2-.8s.6-.1.8.2c.1.2.2.3.3.5.2.3.1.6-.2.8-.1 0-.2.1-.3.1zm-1.4-2.7c-.2 0-.5-.1-.6-.4-.1-.2-.1-.4-.2-.6-.1-.3.1-.6.4-.7s.6.1.7.4c.1.2.1.4.2.5.1.3 0 .6-.3.8h-.2z"/>
		</g>
		<g id="g107">
			<path id="path109" style="fill:#005da1" d="m37 126.9c-.2 0-.4-.1-.5-.2-.3 0-.5-.2-.5-.5s.2-.6.5-.7h.3c.3 0 .5.1.6.4 0 .1.1.2.1.3.1.3 0 .6-.3.8 0-.1-.1-.1-.2-.1z"/>
		</g>
		<g id="g111">
			<path id="path113" style="fill:#005da1" d="m48 134.8h-.6c-.3 0-.6-.3-.5-.6 0-.3.3-.6.6-.5h.5c.3 0 .6.3.6.6 0 .2-.3.5-.6.5zm2.3-.1c-.3 0-.5-.2-.6-.5 0-.3.2-.6.5-.7.2 0 .4 0 .5-.1.3-.1.6.2.7.5s-.2.6-.5.7c-.2 0-.4 0-.6.1zm-5.1-.4h-.2c-.2-.1-.4-.1-.6-.2-.3-.1-.5-.4-.4-.7s.4-.5.7-.4c.2.1.3.1.5.2.3.1.5.4.4.7.1.2-.2.4-.4.4zm-2.6-1.1c-.1 0-.2 0-.3-.1-.2-.1-.3-.2-.5-.3-.3-.2-.4-.5-.2-.8s.5-.4.8-.2c.2.1.3.2.5.3.3.2.4.5.2.8-.1.2-.3.3-.5.3zm-2.3-1.7c-.1 0-.3-.1-.4-.2l-.4-.4c-.2-.2-.2-.6 0-.8s.6-.2.8 0l.4.4c.2.2.3.6 0 .8-.1.1-.3.2-.4.2zm-1.9-2.1c-.2 0-.4-.1-.5-.3s-.2-.3-.3-.5c-.2-.3-.1-.6.2-.8s.6-.1.8.2c.1.2.2.3.3.5.2.3.1.6-.1.8-.2 0-.3.1-.4.1z"/>
		</g>
		<g id="g115">
			<path id="path117" style="fill:#005da1" d="m53.4 134.2c-.2 0-.3-.1-.4-.2-.2 0-.4-.2-.5-.4-.1-.3 0-.6.3-.8.1 0 .2-.1.3-.1.2-.1.3-.1.5 0 .1.1.3.2.3.3s.1.2.1.3c.1.3-.1.6-.4.7-.1.2-.1.2-.2.2z"/>
		</g>
		<g id="g119">
			<path id="path121" style="fill:#005da1" d="m68.4 144c-.3 0-.6-.2-.6-.5s.2-.6.5-.6c.2 0 .4 0 .5-.1.3 0 .6.2.6.5s-.2.6-.5.6c-.1.1-.3.1-.5.1zm-2.3 0c-.2 0-.4 0-.6-.1-.3 0-.6-.3-.5-.6 0-.3.3-.6.6-.5.2 0 .4 0 .5.1.3 0 .6.3.5.6.1.3-.2.5-.5.5zm5.1-.5c-.3 0-.5-.2-.6-.4-.1-.3.1-.6.4-.7.2 0 .3-.1.5-.2.3-.1.6.1.7.4s-.1.6-.4.7c-.2.1-.4.1-.6.2.1 0 0 0 0 0zm-7.9 0h-.2c-.2-.1-.4-.1-.6-.2-.3-.1-.5-.4-.4-.7s.4-.5.7-.4c.2.1.3.1.5.2.3.1.5.4.4.7.1.2-.1.4-.4.4zm10.5-1c-.2 0-.4-.1-.5-.3-.1-.3 0-.6.3-.8.2-.1.3-.2.5-.3.3-.2.6-.1.8.2s.1.6-.2.8c-.2.1-.3.2-.5.3s-.3.1-.4.1zm-13.1 0c-.1 0-.2 0-.3-.1-.2-.1-.3-.2-.5-.3-.3-.2-.4-.5-.2-.8s.5-.4.8-.2c.2.1.3.2.5.3.3.1.4.5.3.8-.2.2-.4.3-.6.3zm15.5-1.5c-.2 0-.3-.1-.5-.2-.2-.3-.2-.6.1-.8.1-.1.3-.2.4-.3.2-.2.6-.2.8.1.2.2.2.6-.1.8-.2.1-.3.2-.5.4h-.2zm-17.9 0c-.1 0-.3 0-.4-.1-.2-.1-.3-.2-.5-.4s-.3-.6-.1-.8.6-.3.8-.1c.1.1.3.2.4.3.3.2.3.6.1.8.1.2-.1.3-.3.3zm20-1.9c-.1 0-.3 0-.4-.1-.2-.2-.3-.6-.1-.8.1-.1.2-.3.4-.4.2-.3.6-.3.8-.1.3.2.3.6.1.8-.1.2-.3.3-.4.5-.1 0-.2.1-.4.1zm-22.1-.1c-.2 0-.3-.1-.4-.2s-.3-.3-.4-.5c-.2-.3-.2-.6.1-.8s.6-.2.8.1c.1.1.2.3.4.4.2.2.2.6-.1.8-.1.2-.2.2-.4.2zm23.8-2.2c-.1 0-.2 0-.3-.1-.3-.2-.4-.5-.2-.8.1-.2.2-.3.3-.5.2-.3.5-.4.8-.2s.4.5.2.8c-.1.2-.2.3-.3.5s-.3.3-.5.3zm-25.4-.1c-.2 0-.4-.1-.5-.3s-.2-.3-.3-.5c-.2-.3 0-.6.2-.8.3-.2.6 0 .8.2.1.2.2.3.3.5.2.3.1.6-.2.8-.1.1-.2.1-.3.1z"/>
		</g>
		<g id="g123">
			<path id="path125" style="fill:#005da1" d="m81.1 134.2h-.2c-.3-.1-.5-.4-.4-.7 0-.1.1-.2.1-.3 0-.2.2-.3.3-.3.1-.1.3-.1.5 0 .1 0 .2.1.3.1.3.1.5.4.3.8-.1.2-.3.4-.5.4 0-.1-.2 0-.4 0z"/>
		</g>
		<g id="g127">
			<path id="path129" style="fill:#005da1" d="m86.6 134.8c-.3 0-.6-.2-.6-.6 0-.3.2-.6.6-.6h.5c.3 0 .6.2.6.5s-.2.6-.5.6c-.2 0-.4 0-.6.1zm-2.3-.1s-.1 0 0 0c-.3 0-.5-.1-.7-.1-.3-.1-.5-.4-.5-.7.1-.3.4-.5.7-.5.2 0 .4.1.5.1.3 0 .5.3.5.7 0 .3-.2.5-.5.5zm5.1-.4c-.3 0-.5-.2-.6-.4-.1-.3.1-.6.4-.7.2-.1.3-.1.5-.2.3-.1.6.1.7.4s-.1.6-.4.7c-.2.1-.4.1-.6.2.1 0 0 0 0 0zm2.6-1.1c-.2 0-.4-.1-.5-.3-.2-.3-.1-.6.2-.8.2-.1.3-.2.5-.3.3-.2.6-.1.8.2s.1.6-.2.8c-.2.1-.3.2-.5.3-.1.1-.2.1-.3.1zm2.3-1.7c-.2 0-.3-.1-.4-.2-.2-.2-.2-.6 0-.8.1-.1.3-.2.4-.4.2-.2.6-.2.8 0s.2.6 0 .8l-.4.4c-.1.2-.3.2-.4.2zm1.9-2.1c-.1 0-.2 0-.3-.1-.3-.2-.3-.5-.1-.8.1-.1.2-.3.3-.5.2-.3.5-.4.8-.2s.4.5.2.8c-.1.2-.2.3-.3.5-.3.2-.4.3-.6.3z"/>
		</g>
		<g id="g131">
			<path id="path133" style="fill:#005da1" d="m97.5 126.9h-.2c-.3-.1-.4-.5-.3-.8 0-.1.1-.2.1-.3.1-.3.4-.4.6-.4h.3c.3 0 .5.3.5.7 0 .3-.3.5-.5.5-.1.2-.3.3-.5.3z"/>
		</g>
		<g id="g135">
			<path id="path137" style="fill:#005da1" d="m100.3 126.8c-.3 0-.6-.2-.6-.6 0-.3.2-.6.6-.6h.6c.3 0 .6.2.6.5s-.2.6-.5.6-.5 0-.7.1zm2.9-.5c-.3 0-.5-.2-.6-.4-.1-.3.1-.6.4-.7.2-.1.4-.1.5-.2.3-.1.6.1.7.4s-.1.6-.4.7c-.2.1-.4.1-.6.2.1 0 0 0 0 0zm2.7-1.2c-.2 0-.4-.1-.5-.3-.2-.3-.1-.6.2-.8.2-.1.3-.2.5-.3.3-.2.6-.1.8.2s.1.6-.2.8c-.2.1-.4.2-.5.3s-.2.1-.3.1zm2.4-1.7c-.2 0-.3-.1-.4-.2-.2-.2-.2-.6 0-.8l.4-.4c.2-.2.6-.2.8 0s.2.6 0 .8l-.4.4c-.1.1-.3.2-.4.2zm1.9-2.2c-.1 0-.2 0-.3-.1-.3-.2-.3-.5-.2-.8.1-.2.2-.3.3-.5.2-.3.5-.4.8-.2s.4.5.2.8c-.1.2-.2.4-.3.5-.1.2-.3.3-.5.3zm1.3-2.7h-.2c-.3-.1-.5-.4-.3-.8.1-.2.1-.4.2-.5.1-.3.4-.5.7-.4s.5.4.4.7c-.1.2-.1.4-.2.6-.1.3-.4.4-.6.4z"/>
		</g>
		<g id="g139">
			<path id="path141" style="fill:#005da1" d="m112.2 115.7s-.1 0 0 0c-.4 0-.6-.3-.6-.7v-.3c0-.2.1-.3.2-.4s.3-.1.5-.1c.1 0 .2 0 .3.1.3.1.5.4.5.7 0 .2-.2.4-.4.5-.1.1-.3.2-.5.2z"/>
		</g>
		<g id="g143">
			<path id="path145" style="fill:#005da1" d="m115 115.6h-.1c-.3 0-.6-.3-.6-.6s.3-.6.6-.6h.1.5c.3 0 .6.2.6.6 0 .3-.2.6-.6.6h-.5zm2.9-.3c-.3 0-.5-.2-.6-.5s.1-.6.5-.7c.2 0 .4-.1.6-.1.3-.1.6.1.7.4s-.1.6-.4.7c-.2.1-.4.1-.6.1-.1.1-.1.1-.2.1zm2.9-.9c-.2 0-.4-.1-.5-.4s0-.6.3-.8c.2-.1.4-.2.5-.2.3-.1.6 0 .8.3.1.3 0 .6-.3.8l-.6.3h-.2zm2.7-1.5c-.2 0-.4-.1-.5-.2-.2-.3-.1-.6.1-.8.2-.1.3-.2.5-.3.3-.2.6-.2.8.1s.2.6-.1.8c-.2.1-.3.3-.5.4h-.3zm2.2-2c-.1 0-.3-.1-.4-.2-.2-.2-.3-.6 0-.8l.4-.4c.2-.2.6-.3.8-.1s.3.6.1.8c-.1.2-.3.3-.4.5-.2.2-.3.2-.5.2zm1.8-2.4c-.1 0-.2 0-.3-.1-.3-.2-.4-.5-.2-.8.1-.2.2-.3.3-.5.2-.3.5-.4.8-.2s.4.5.2.8c-.1.2-.2.4-.3.5-.1.2-.3.3-.5.3zm1.3-2.7h-.2c-.3-.1-.5-.4-.4-.7.1-.2.1-.4.2-.6.1-.3.4-.5.7-.4s.5.4.4.7c-.1.2-.1.4-.2.6 0 .2-.2.4-.5.4zm.7-3s-.1 0 0 0c-.4 0-.6-.3-.6-.7 0-.2 0-.4.1-.6 0-.3.3-.6.6-.5.3 0 .6.3.5.6 0 .2 0 .4-.1.6 0 .4-.2.6-.5.6zm0-3c-.3 0-.6-.2-.6-.5 0-.2 0-.4-.1-.6 0-.3.2-.6.5-.7.3 0 .6.2.7.5 0 .2 0 .4.1.6.1.4-.2.7-.6.7.1 0 .1 0 0 0zm-.5-3c-.3 0-.5-.2-.6-.4s-.1-.4-.2-.6c-.1-.3.1-.6.4-.7s.6.1.7.4c.1.2.1.4.2.6.1.3-.1.6-.4.7h-.1zm-1.2-2.8c-.2 0-.4-.1-.5-.3s-.2-.3-.3-.5c-.2-.3-.1-.6.2-.8s.6-.1.8.2c.1.2.2.4.3.5.2.3.1.6-.2.8-.1.1-.2.1-.3.1z"/>
		</g>
		<g id="g147">
			<path id="path149" style="fill:#005da1" d="m126.1 91.5c-.2 0-.3-.1-.4-.2l-.2-.2c-.1-.1-.2-.3-.1-.4 0-.2.1-.3.2-.4l.2-.2c.3-.2.6-.2.8.1.1.2.2.4.1.6.1.2 0 .4-.2.6-.2.1-.3.1-.4.1z"/>
		</g>
		<g id="g151">
			<path id="path153" style="fill:#005da1" d="m127.7 89.6c-.1 0-.3 0-.4-.1-.2-.2-.3-.6-.1-.8.1-.1.2-.3.3-.4.2-.3.6-.3.8-.1.3.2.3.6.1.8-.1.2-.2.3-.4.5 0 0-.1.1-.3.1zm1.6-2.4c-.1 0-.2 0-.3-.1-.3-.2-.4-.5-.2-.8.1-.2.2-.3.2-.5.1-.3.5-.4.8-.3s.4.5.3.8c-.1.2-.2.4-.3.5-.1.3-.3.4-.5.4zm1-2.6h-.2c-.3-.1-.5-.4-.4-.7 0-.2.1-.4.1-.5.1-.3.4-.5.7-.4s.5.4.4.7c0 .2-.1.4-.1.6 0 .1-.2.3-.5.3zm.5-2.8c-.1 0-.1 0 0 0-.3 0-.6-.3-.6-.6v-.4-.1c0-.3.3-.6.6-.6s.6.3.6.6v.2.4c-.1.3-.3.5-.6.5zm-.3-2.8c-.3 0-.5-.2-.6-.5 0-.2-.1-.4-.1-.5-.1-.3.1-.6.4-.7s.6.1.7.4c0 .2.1.4.1.6.1.3-.1.6-.5.7.1 0 .1 0 0 0zm-.8-2.7c-.2 0-.4-.1-.5-.3s-.2-.3-.2-.5c-.1-.3 0-.6.3-.8.3-.1.6 0 .8.3.1.2.2.4.3.5.1.3 0 .6-.3.8h-.4z"/>
		</g>
	</g>
</g>
<g id="g155" transform="matrix(.99844 0 0 .99644 -3.195 -3.4875)">
	<linearGradient id="SVGID_1_" y2="27.533" gradientUnits="userSpaceOnUse" x2="30.694" y1="120.23" x1="104.33">
		<stop id="stop158" style="stop-color:#268DCD" offset="0"/>
		<stop id="stop160" style="stop-color:#40BCD7" offset="1"/>
	</linearGradient>
	<path id="path162" style="fill:url(#SVGID_1_)" d="m67.3 140.6c-5.6 0-10.5-3.6-12.2-8.9-.1-.4-.4-.7-.8-.9-.2-.1-.4-.1-.7-.1-.2 0-.4 0-.6.1-1.3.5-2.6.8-4 .8-4.5 0-8.5-2.8-10.1-7-.2-.6-.8-1-1.5-1h-.3c-.6.1-1.2.2-1.8.2-2.7 0-5.3-1-7.3-2.8s-3.2-4.3-3.4-6.9c0-.4-.3-.8-.6-1.1-.3-.2-.6-.3-.9-.3h-.3c-.8.2-1.6.2-2.4.2-7 0-12.7-5.7-12.7-12.7 0-3.1 1.2-6.2 3.3-8.5.3-.3.4-.8.4-1.2s-.3-.8-.6-1.1c-2.7-2-4.2-5.1-4.2-8.5 0-2.4.8-4.7 2.3-6.6.5-.6.5-1.4 0-1.9-1.5-1.9-2.3-4.2-2.3-6.6 0-3.5 1.7-6.7 4.5-8.7.4-.3.6-.6.6-1.1.1-.4-.1-.9-.4-1.2-1.9-2.3-3-5.2-3-8.2 0-7 5.7-12.7 12.7-12.7.7 0 1.3.1 2 .2h.2c.8 0 1.4-.6 1.5-1.3.4-2.5 1.7-4.8 3.6-6.4 1.9-1.7 4.4-2.6 7-2.6.6 0 1.2.1 1.8.2h.3c.6 0 1.2-.4 1.5-1 1.6-4.1 5.5-6.8 10-6.8 1.4 0 2.8.3 4.1.8.2.1.4.1.6.1s.4 0 .6-.1c.4-.2.7-.5.8-.9 1.9-5.6 6.8-9.1 12.3-9.1s10.4 3.5 12.1 8.7c.1.4.4.7.8.9.2.1.4.1.6.1s.4 0 .6-.1c1.3-.5 2.7-.8 4.1-.8 4.4 0 8.3 2.7 10 6.8.2.6.8 1 1.5 1h.3c.6-.1 1.2-.2 1.8-.2 2.6 0 5 .9 7 2.6 1.9 1.7 3.2 3.9 3.6 6.4.1.8.8 1.3 1.5 1.3h.2c.6-.1 1.3-.2 2-.2 7 0 12.7 5.7 12.7 12.7 0 3-1.1 5.9-3 8.2-.3.3-.4.8-.4 1.2s.3.8.6 1.1c2.8 2 4.5 5.3 4.5 8.7 0 2.4-.8 4.7-2.3 6.6-.5.6-.5 1.4 0 1.9 1.5 1.9 2.3 4.2 2.3 6.6 0 3.3-1.5 6.4-4.2 8.5-.3.3-.6.7-.6 1.1s.1.9.4 1.2c2.1 2.3 3.3 5.4 3.3 8.5 0 7-5.7 12.7-12.7 12.7-.8 0-1.6-.1-2.4-.2h-.3c-.3 0-.7.1-.9.3-.4.3-.6.7-.6 1.1-.2 2.7-1.5 5.1-3.4 6.9-2 1.8-4.6 2.8-7.3 2.8-.6 0-1.2-.1-1.8-.2h-.3c-.6 0-1.2.4-1.5 1-1.6 4.2-5.6 7-10.1 7-1.4 0-2.7-.3-4-.8-.2-.1-.4-.1-.6-.1s-.5 0-.7.1c-.4.2-.7.5-.8.9-1.5 5.7-6.4 9.3-12 9.3z"/>
	<path id="path164" style="fill:#ffffff" d="m67.3 8.5c4.8 0 9.1 3.1 10.7 7.6.3.8.9 1.5 1.7 1.8.4.2.8.3 1.3.3.4 0 .8-.1 1.2-.2 1.1-.5 2.3-.7 3.5-.7 1.9 0 3.7.6 5.2 1.6s2.6 2.5 3.3 4.2c.5 1.2 1.6 2 2.9 2h.5c.5-.1 1.1-.1 1.6-.1 2.2 0 4.3.8 6 2.2 1.6 1.4 2.7 3.4 3.1 5.5.2 1.5 1.6 2.6 3.1 2.6h.5c.6-.1 1.2-.1 1.7-.1 6.2 0 11.2 5 11.2 11.2 0 2.6-.9 5.2-2.6 7.2-.6.7-.8 1.5-.7 2.4s.6 1.6 1.3 2.1c2.4 1.7 3.9 4.5 3.9 7.4 0 2.1-.7 4-2 5.7-.9 1.1-.9 2.8 0 3.9 1.3 1.6 2 3.6 2 5.7 0 2.9-1.3 5.5-3.6 7.2-.7.5-1.1 1.3-1.2 2.2s.2 1.7.8 2.4c1.8 2.1 2.9 4.7 2.9 7.5 0 6.2-5 11.2-11.2 11.2-.7 0-1.4-.1-2.2-.2-.2 0-.4-.1-.6-.1-.7 0-1.3.2-1.9.6-.7.5-1.2 1.3-1.2 2.2-.2 2.3-1.3 4.4-2.9 5.9-1.7 1.6-3.9 2.4-6.2 2.4-.5 0-1 0-1.5-.1h-.5c-1.3 0-2.5.8-2.9 2-1.3 3.6-4.8 6-8.6 6-1.2 0-2.3-.2-3.4-.6-.4-.1-.8-.2-1.1-.2-.5 0-.9.1-1.3.3-.8.4-1.4 1-1.6 1.9-1.5 4.7-5.8 7.8-10.7 7.8s-9.2-3.1-10.7-7.8c-.3-.8-.9-1.5-1.6-1.9-.4-.2-.9-.3-1.3-.3s-.8.1-1.1.2c-1.1.4-2.2.6-3.4.6-3.8 0-7.3-2.4-8.6-6-.5-1.2-1.6-2-2.9-2h-.5c-.5.1-1 .1-1.5.1-2.3 0-4.5-.9-6.2-2.4-1.7-1.6-2.7-3.7-2.9-5.9-.1-.9-.5-1.7-1.2-2.2-.5-.4-1.2-.6-1.9-.6-.2 0-.4 0-.6.1-.7.1-1.4.2-2.2.2-6.2 0-11.2-5-11.2-11.2 0-2.8 1-5.4 2.9-7.5.6-.6.9-1.5.8-2.4s-.5-1.7-1.2-2.2c-2.3-1.7-3.6-4.4-3.6-7.2 0-2.1.7-4 2-5.7.9-1.1.9-2.8 0-3.9-1.3-1.6-2-3.6-2-5.7 0-2.9 1.4-5.7 3.9-7.4.7-.5 1.2-1.3 1.3-2.1.1-.9-.1-1.7-.7-2.4-1.7-2-2.6-4.5-2.6-7.2 0-6.2 5-11.2 11.2-11.2.6 0 1.2 0 1.7.1h.5c1.5 0 2.8-1.1 3.1-2.6.3-2.1 1.4-4.1 3.1-5.5s3.8-2.2 6-2.2c.5 0 1 0 1.6.1h.5c1.3 0 2.4-.8 2.9-2 .7-1.7 1.8-3.1 3.3-4.2s3.3-1.6 5.2-1.6c1.2 0 2.4.2 3.5.7.4.2.8.2 1.2.2s.9-.1 1.3-.3c.8-.4 1.4-1 1.7-1.8.6-4.5 4.9-7.6 9.7-7.6m0-3.1c-6.3 0-11.7 4.1-13.6 9.8-1.4-.6-3-.9-4.7-.9-5.2 0-9.6 3.2-11.4 7.8-.7-.1-1.4-.2-2.1-.2-6.1 0-11.2 4.5-12.1 10.4-.7-.1-1.5-.2-2.2-.2-7.9 0-14.3 6.4-14.3 14.3 0 3.5 1.3 6.7 3.3 9.2-3.2 2.1-5.2 5.7-5.2 9.9 0 2.9 1 5.5 2.7 7.6-1.7 2.1-2.7 4.7-2.7 7.6 0 4 1.9 7.5 4.8 9.7-2.3 2.6-3.7 5.9-3.7 9.6 0 7.9 6.4 14.3 14.3 14.3.9 0 1.9-.1 2.7-.3.6 6.3 5.8 11.2 12.3 11.2.7 0 1.4-.1 2-.2 1.7 4.7 6.3 8 11.6 8 1.6 0 3.1-.3 4.5-.9 1.9 5.8 7.3 10 13.7 10s11.8-4.2 13.7-10c1.4.6 2.9.9 4.5.9 5.3 0 9.8-3.3 11.6-8 .7.1 1.4.2 2 .2 6.4 0 11.7-4.9 12.3-11.2.9.2 1.8.3 2.7.3 7.9 0 14.3-6.4 14.3-14.3 0-3.7-1.4-7-3.7-9.6 2.9-2.2 4.8-5.8 4.8-9.7 0-2.9-1-5.5-2.7-7.6 1.7-2.1 2.7-4.7 2.7-7.6 0-4.1-2-7.8-5.2-10 2.1-2.5 3.3-5.7 3.3-9.2 0-7.9-6.4-14.3-14.3-14.3-.8 0-1.5.1-2.2.2-.9-5.9-6-10.4-12.1-10.4-.7 0-1.4.1-2.1.2-1.8-4.6-6.2-7.8-11.4-7.8-1.7 0-3.3.3-4.7.9-1.7-5.6-7.1-9.7-13.4-9.7z"/>
</g>
<linearGradient id="SVGID_2_" y2="43.784" gradientUnits="userSpaceOnUse" x2="19.782" gradientTransform="matrix(.99844 0 0 .99644 -3.195 -3.4875)" y1="107.04" x1="119.94">
	<stop id="stop167" style="stop-color:#296FB7" offset="0"/>
	<stop id="stop169" style="stop-color:#02AFE1" offset="1"/>
</linearGradient>
<path id="path171" style="fill:url(#SVGID_2_)" d="m113.72 75.132-24.26 6.178-6.19-3.588 10.284-2.69c1.0983-.29893 1.7972-1.395 1.4977-2.4911-.29953-1.0961-1.3978-1.7936-2.4961-1.4947l-14.278 3.6868-8.1872-4.6833 8.1872-4.6833 14.178 3.6868c.19969 0 .29953.09964.49922.09964.89860 0 1.6973-.59786 1.9969-1.4947.29953-1.0961-.39938-2.1922-1.4977-2.4911l-10.184-2.59 6.19-3.588 24.26 6.278c.29953.09964.49922.09964.79875.09964 1.298 0 2.5959-.89680 2.8955-2.2918.39937-1.5943-.59907-3.2883-2.1966-3.6868l-18.371-4.7829 5.3916-3.089 8.7863 2.5907c.19969.09964.39938.09964.59907.09964.89859 0 1.6973-.59786 1.9969-1.4947.29954-1.0961-.29953-2.1922-1.3978-2.4911l-4.9922-1.4947 7.2886-4.1851c1.3978-.79715 1.897-2.6904 1.0983-4.0854-.79875-1.395-2.6958-1.8932-4.0936-1.0961l-7.3884 4.2847 1.0983-4.9822c.29953-1.0961-.39938-2.1922-1.4977-2.4911-1.0983-.29893-2.1966.39858-2.4961 1.4947l-1.9969 8.669-5.3916 2.9893 5.092-18.235c.39937-1.5943-.49922-3.2883-2.0967-3.6868-1.5975-.39858-3.2948.49822-3.6942 2.0925l-6.6895 24.114-6.1903 3.5872 2.7956-10.164c.29953-1.0961-.29953-2.1922-1.3978-2.4911-1.0983-.29893-2.1966.29893-2.4961 1.395l-3.8939 14.149-8.1872 4.6833v-9.4662l10.284-10.463c.79875-.79715.79875-2.0925 0-2.8897-.79875-.79715-2.0967-.79715-2.8955 0l-7.3885 7.4733v-7.0747l17.573-17.836c1.1981-1.1957 1.1981-3.089 0-4.2847s-3.0952-1.1957-4.2933 0l-13.379 13.651v-6.1779l6.6895-6.2776c.79875-.79715.89860-2.0925.09984-2.8897-.79875-.79715-2.0967-.89680-2.8955-.09964l-3.7941 3.5872v-8.3701c0-1.694-1.3978-2.9893-2.9953-2.9893s-2.9953 1.395-2.9953 2.9893v8.4698l-3.7941-3.4875c-.79875-.79715-2.0967-.69751-2.8955.09964-.79875.79715-.69891 2.0925.09984 2.8897l6.5897 6.0783v6.1779l-13.379-13.452c-1.1981-1.1957-3.0952-1.1957-4.2933 0s-1.1981 3.089 0 4.2847l17.573 17.836v7.1744l-7.4883-7.4733c-.79875-.79715-2.0967-.79715-2.8955 0-.79875.79715-.79875 2.0925 0 2.8897l10.384 10.463v9.3665l-8.1872-4.6833-3.7941-14.149c-.29953-1.0961-1.3978-1.694-2.4961-1.395-1.0983.29893-1.6973 1.395-1.3978 2.4911l2.786 10.264-6.19-3.588-6.79-24.512c-.39938-1.5943-2.0967-2.5907-3.6942-2.0925-1.5975.39858-2.5959 2.0925-2.0967 3.6868l4.9922 18.235-5.2917-3.089-1.9969-8.669c-.19969-1.0961-1.298-1.7936-2.3963-1.5943-1.0983.19929-1.7972 1.2954-1.5975 2.3915l1.0983 4.9822-7.3885-4.2847c-1.3978-.79715-3.2949-.29893-4.0936 1.0961-.79875 1.395-.29953 3.2883 1.0983 4.0854l7.2886 4.1851-4.9922 1.4947c-1.0983.29893-1.6973 1.4947-1.3978 2.4911.29953.89680 1.0983 1.4947 1.9969 1.4947.19969 0 .39938 0 .59906-.09964l8.6864-2.3915 5.3916 3.089-18.371 4.6833c-1.5975.39858-2.5959 2.0925-2.1966 3.6868.29953 1.395 1.5975 2.2918 2.8955 2.2918.19969 0 .49922 0 .79875-.09964l24.262-6.1779 6.1903 3.5872-10.184 2.5907c-1.0983.29893-1.7972 1.395-1.4977 2.4911.19969.89680 1.0983 1.4947 1.9969 1.4947.19969 0 .29953 0 .49922-.09964l14.278-3.5872 8.1872 4.6833-8.2871 4.7829-14.278-3.7865c-1.0983-.29893-2.1966.39858-2.4961 1.4947-.29953 1.0961.39938 2.1922 1.4977 2.4911l10.284 2.6904-6.1903 3.5872-24.262-6.2776c-1.5975-.39858-3.2949.59786-3.6942 2.1922-.39938 1.5943.59906 3.2883 2.1966 3.6868l18.371 4.7829-5.3916 2.9893-8.4867-2.5907c-1.0983-.29893-2.1966.29893-2.5959 1.395-.29953 1.0961.29953 2.1922 1.3978 2.5907l4.8924 1.4947-7.3885 4.2847c-1.3978.79715-1.897 2.6904-1.0983 4.0854.59906.99644 1.5975 1.4947 2.5959 1.4947.49922 0 .99844-.0997 1.4977-.39858l7.2886-4.185-1.1981 5.0818c-.29953 1.0961.39938 2.1922 1.4977 2.4911.19969 0 .29953.0996.49922.0996.89860 0 1.7972-.59787 1.9969-1.5943l2.0967-8.8683 5.3916-3.089-5.092 18.235c-.39938 1.5943.49922 3.2883 2.0967 3.6868.29953.0996.49922.0996.79875.0996 1.298 0 2.4961-.8968 2.8955-2.1922l6.6895-24.114 6.1903-3.5872-2.7956 10.064c-.29953 1.0961.29953 2.1922 1.3978 2.4911.19969.09964.39938.09964.49922.09964.89860 0 1.6973-.59786 1.9969-1.4947l3.8939-14.05 8.1872-4.6833v9.4662l-10.384 10.164c-.79875.79715-.79875 2.0925 0 2.8897.79875.79715 2.0967.79715 2.8955 0l7.4883-7.4733v7.1744l-17.573 17.836c-1.1981 1.1957-1.1981 3.089 0 4.2847.59906.59787 1.3978.8968 2.0967.8968.79875 0 1.5975-.29893 2.1966-.8968l13.279-13.452v6.1779l-6.5897 6.0783c-.79875.79716-.89860 2.0925-.09984 2.8897.79875.79716 2.0967.8968 2.8955.0996l3.7941-3.4876v8.4698c0 1.694 1.3978 2.9893 2.9953 2.9893s2.9953-1.395 2.9953-2.9893v-8.3701l3.7941 3.5872c.39938.39858.89860.59787 1.3978.59787.49922 0 1.0983-.19929 1.4977-.59787.79875-.79715.69891-2.0925-.09984-2.8897l-6.5897-6.2776v-6.1779l13.279 13.452c.59906.59786 1.3978.89679 2.1966.89679.79875 0 1.4977-.29893 2.0967-.89679 1.1981-1.1957 1.1981-3.089 0-4.2847l-17.573-17.836v-7.0747l7.3885 7.4733c.39938.39857.89860.59786 1.4977.59786.49922 0 .99844-.19929 1.3978-.59786.79875-.79716.79875-2.0925 0-2.8897l-10.183-10.565v-9.3665l8.1872 4.6833 3.7941 14.149c.19969.89680 1.0983 1.4947 1.9969 1.4947.19969 0 .39938 0 .49922-.09964 1.0983-.29893 1.6973-1.395 1.3978-2.4911l-2.7956-10.064 6.1903 3.5872 6.5897 24.114c.39938 1.2954 1.5975 2.1922 2.8955 2.1922.29953 0 .49922 0 .79875-.0996 1.5975-.39857 2.5959-2.0925 2.0967-3.6868l-4.9922-18.235 5.3916 3.089 2.0967 8.8683c.19968.8968 1.0983 1.5943 1.9969 1.5943.19968 0 .29953 0 .49922-.0996 1.0983-.29893 1.7972-1.395 1.4977-2.4911l-1.1981-5.0818 7.2886 4.185c.49922.29893.99844.39858 1.4977.39858.99844 0 2.0967-.49822 2.5959-1.4947.79875-1.395.29953-3.2883-1.0983-4.0854l-7.3885-4.2847 4.8924-1.4947c1.0983-.29893 1.6974-1.4947 1.3978-2.5907-.29953-1.0961-1.4976-1.694-2.5959-1.395l-8.5866 2.5907-5.2917-3.089 18.371-4.6833c1.5975-.39858 2.5959-2.0925 2.1966-3.6868-.29953-1.4947-1.897-2.4911-3.4945-1.9929z"/>
</svg>
